core_cm4.h:1677:22:__NVIC_EnableIRQ	16	static
fsl_common.h:414:28:EnableIRQ	16	static
fsl_i2s.h:385:20:I2S_Enable	16	static
fsl_i2s.h:395:20:I2S_Disable	16	static
fsl_i2s.h:414:20:I2S_EnableInterrupts	16	static
fsl_i2s.h:426:20:I2S_DisableInterrupts	16	static
fsl_i2s.c:72:10:I2S_GetInstance	24	static
fsl_i2s.c:99:6:I2S_TxInit	24	static
fsl_i2s.c:134:6:I2S_RxInit	24	static
fsl_i2s.c:187:6:I2S_TxGetDefaultConfig	16	static
fsl_i2s.c:244:6:I2S_RxGetDefaultConfig	16	static
fsl_i2s.c:268:13:I2S_Config	24	static
fsl_i2s.c:326:6:I2S_Deinit	16	static
fsl_i2s.c:331:13:I2S_TxEnable	16	static
fsl_i2s.c:346:13:I2S_RxEnable	16	static
fsl_i2s.c:361:17:I2S_ValidateBuffer	16	static
fsl_i2s.c:467:6:I2S_TxTransferCreateHandle	32	static
fsl_i2s.c:508:10:I2S_TxTransferNonBlocking	32	static
fsl_i2s.c:547:6:I2S_TxTransferAbort	16	static
fsl_i2s.c:571:6:I2S_RxTransferCreateHandle	32	static
fsl_i2s.c:612:10:I2S_RxTransferNonBlocking	32	static
fsl_i2s.c:651:6:I2S_RxTransferAbort	16	static
fsl_i2s.c:677:10:I2S_TransferGetCount	24	static
fsl_i2s.c:711:10:I2S_TransferGetErrorCount	24	static
fsl_i2s.c:741:6:I2S_TxHandleIRQ	32	static
fsl_i2s.c:916:6:I2S_RxHandleIRQ	32	static
