fsl_clock.h:470:20:CLOCK_EnableClock	24	static
fsl_clock.h:483:20:CLOCK_DisableClock	24	static
fsl_mrt.h:305:20:MRT_StopTimer	16	static
fsl_mrt.c:52:17:MRT_GetInstance	24	static
fsl_mrt.c:80:6:MRT_Init	16	static
fsl_mrt.c:105:6:MRT_Deinit	16	static
fsl_mrt.c:137:6:MRT_UpdateTimerPeriod	32	static
