../utilities/utilities/fsl_notifier.c:40:10:NOTIFIER_CreateHandle	32	static
../utilities/utilities/fsl_notifier.c:97:10:NOTIFIER_SwitchConfig	48	static
../utilities/utilities/fsl_notifier.c:206:9:NOTIFIER_GetErrorCallbackIndex	0	static
