../drivers/fsl_clock.h:470:20:void CLOCK_EnableClock(clock_ip_name_t)	24	static
c:\nxp\mcuxpressoide_11.4.1_6260\ide\plugins\com.nxp.mcuxpresso.tools.win32_11.4.0.202103011116\tools\arm-none-eabi\include\c++\10.2.1\arm-none-eabi\thumb\v7e-m+fp\hard\bits\gthr-default.h:229:1:int __gthread_key_delete(__gthread_key_t)	16	static
../drivers/fsl_gpio.h:134:24:uint32_t GPIO_PinRead(GPIO_Type*, uint32_t, uint32_t)	24	static
../drivers/fsl_gpio.h:185:24:uint32_t GPIO_PortRead(GPIO_Type*, uint32_t)	16	static
../drivers/fsl_ctimer.h:317:24:uint32_t CTIMER_GetTimerCountValue(CTIMER_Type*)	16	static
../drivers/fsl_ctimer.h:452:20:void CTIMER_StartTimer(CTIMER_Type*)	16	static
../source/DisplayControl.cpp:107:6:void pint_intr_callback(pint_pin_int_t, uint32_t)	24	static
../source/DisplayControl.cpp:142:6:void Button_ShortPressed(uint8_t)	16	static
../source/DisplayControl.cpp:147:6:void Button_LongPressed(uint8_t)	16	static
../source/DisplayControl.cpp:153:6:void ReadInputs()	24	static
../source/DisplayControl.cpp:197:6:void SendNewEncoderValue(uint8_t)	24	static
../source/DisplayControl.cpp:206:6:void SendNewButtonsValue(uint32_t)	24	static
../source/DisplayControl.cpp:218:6:void SetupTimer()	16	static
../source/DisplayControl.cpp:230:10:uint32_t GetTimerTick()	8	static
../source/DisplayControl.cpp:235:6:void ReceiveMasterCommMessages()	80	static
../source/DisplayControl.cpp:354:6:void TempFunctionSetAllZoneStates(zone_led_mask)	16	static
../source/DisplayControl.cpp:366:6:void DisplayTextHandler()	8	static
../source/DisplayControl.cpp:407:5:int main()	24	static
