c:\nxp\mcuxpressoide_11.4.1_6260\ide\plugins\com.nxp.mcuxpresso.tools.win32_11.4.0.202103011116\tools\arm-none-eabi\include\c++\10.2.1\arm-none-eabi\thumb\v7e-m+fp\hard\bits\gthr-default.h:229:1:int __gthread_key_delete(__gthread_key_t)	16	static
../source/Display.cpp:13:6:void Init_Display(I2C*)	32	static
../source/Display.cpp:67:5:int Display_Write(uint8_t, uint8_t*, size_t, uint8_t)	56	static
../source/Display.cpp:105:5:int Display_Read(uint8_t, uint8_t*, size_t, uint8_t)	56	static
../source/Display.cpp:142:6:void WriteToDisplay(std::string)	40	static
../source/Display.cpp:147:6:void WriteToDisplay(std::string, uint8_t)	32	static
../source/Display.cpp:161:6:void WriteToDisplay(uint8_t*, int8_t)	24	static
../source/Display.cpp:190:6:void WriteNumberValueToDisplay(int8_t)	24	static
../source/Display.cpp:228:6:void WriteCharacterToDisplay(uint8_t, uint8_t)	24	static
../source/Display.cpp:283:6:void Display_DumpRegisters()	16	static
