../source/LEDs.cpp:15:6:void Init_LEDs(I2C*)	32	static
../source/LEDs.cpp:70:5:int Chip_Write(uint8_t, uint8_t*, size_t, uint8_t)	56	static
../source/LEDs.cpp:107:5:int Chip_Read(uint8_t, uint8_t*, size_t, uint8_t)	56	static
../source/LEDs.cpp:143:6:void LEDs_SetChannelLEDs(uint8_t, uint8_t)	16	static
../source/LEDs.cpp:153:6:void LEDs_AllRedOn()	16	static
../source/LEDs.cpp:168:6:void LEDs_AllRedOff()	16	static
../source/LEDs.cpp:183:6:void LEDs_AllGreenOn()	16	static
../source/LEDs.cpp:198:6:void LEDs_AllGreenOff()	16	static
../source/LEDs.cpp:212:6:void LEDs_AllButtonsOn()	16	static
../source/LEDs.cpp:222:6:void LEDs_AllButtonsOff()	16	static
../source/LEDs.cpp:233:6:void LEDs_SetGlobalPWM(uint8_t)	24	static
../source/LEDs.cpp:241:6:void LEDs_DumpRegisters()	16	static
