<?xml version="1.0" encoding="UTF-8"?>
<session version="1.0">
<refactoring comment="Rename resource &apos;AmpControl/source/Monnikendam v1.1_ADAU1401&apos; to &apos;Monnikendam v1.1_ADAU1401.h&apos;" description="Rename resource &apos;Monnikendam v1.1_ADAU1401&apos;" flags="7" id="org.eclipse.ltk.core.refactoring.rename.resource" input="source/Monnikendam v1.1_ADAU1401" name="Monnikendam v1.1_ADAU1401.h" stamp="1564819596130" updateReferences="true"/>
</session>