fsl_gpio.h:115:20:void GPIO_PinWrite(GPIO_Type*, uint32_t, uint32_t, uint8_t)	24	static
adau1401.cpp:13:1:ADAU1401::ADAU1401(I2C_Type*, uint8_t)	32	static
adau1401.cpp:19:1:ADAU1401::~ADAU1401()	16	static
adau1401.cpp:19:1:virtual ADAU1401::~ADAU1401()	16	static
adau1401.cpp:25:5:int ADAU1401::LoadProgramRAM(uint8_t*, uint16_t)	32	static
adau1401.cpp:47:5:int ADAU1401::LoadParameterRAM(uint8_t*, uint16_t)	32	static
adau1401.cpp:67:5:int ADAU1401::LoadHardwareRegisters(uint8_t*, uint8_t)	24	static
adau1401.cpp:89:5:int ADAU1401::SetReset(bool)	16	static
adau1401.cpp:95:5:int ADAU1401::DisableDSPCore()	24	static
adau1401.cpp:121:5:int ADAU1401::EnableDSPCore()	24	static
adau1401.cpp:148:5:int ADAU1401::SetParameter(uint16_t, uint32_t)	32	static
adau1401.cpp:161:5:int ADAU1401::SetParameterSafe(uint16_t, uint32_t)	32	static
adau1401.cpp:176:6:void ADAU1401::EnsureSafeLoadIsComplete()	24	static
adau1401.cpp:188:6:void ADAU1401::InitiateSafeLoad()	24	static
adau1401.cpp:203:5:int ADAU1401::SetSafeLoadRegister(uint8_t, uint16_t, uint32_t)	40	static
adau1401.cpp:236:5:int ADAU1401::Write(uint16_t, uint8_t*, size_t)	56	static
adau1401.cpp:260:5:int ADAU1401::Read(uint16_t, uint8_t*, size_t)	56	static
