ChannelControl.cpp:15:1:ChannelControl::ChannelControl()	24	static
ChannelControl.cpp:27:1:ChannelControl::~ChannelControl()	16	static
ChannelControl.cpp:27:1:virtual ChannelControl::~ChannelControl()	16	static
ChannelControl.cpp:32:9:uint8_t ChannelControl::GetChannelStateByte(uint8_t)	16	static
