new:173:33:void* operator new(std::size_t, void*)	16	static
new:179:13:void operator delete(void*, void*)	16	static
gthr-default.h:229:1:int __gthread_key_delete(__gthread_key_t)	16	static
stl_tree.h:173:5:std::_Rb_tree_header::_Rb_tree_header()	16	static
stl_tree.h:206:5:void std::_Rb_tree_header::_M_reset()	16	static
stl_vector.h:125:14:std::_Vector_base<ConfigHeader, std::allocator<ConfigHeader> >::_Vector_impl::~_Vector_impl()	16	static
stl_vector.h:285:7:std::_Vector_base<_Tp, _Alloc>::_Vector_base() [with _Tp = ConfigHeader; _Alloc = std::allocator<ConfigHeader>]	16	static
stl_vector.h:484:7:std::vector<_Tp, _Alloc>::vector() [with _Tp = ConfigHeader; _Alloc = std::allocator<ConfigHeader>]	16	static
eepromControl.cpp:15:1:EEPROMControl::EEPROMControl(EEPROM*)	16	static
eepromControl.cpp:22:1:EEPROMControl::~EEPROMControl()	16	static
eepromControl.cpp:22:1:virtual EEPROMControl::~EEPROMControl()	16	static
eepromControl.cpp:31:14:ConfigHeader EEPROMControl::GetConfigHeader(uint8_t)	32	static
eepromControl.cpp:41:6:void EEPROMControl::SelectCurrentConfig(uint8_t)	24	static
eepromControl.cpp:82:10:uint16_t EEPROMControl::GetConfigProgramRAM(uint8_t*, uint16_t)	32	static
eepromControl.cpp:102:10:uint16_t EEPROMControl::GetConfigParameterRAM(uint8_t*, uint16_t)	32	static
eepromControl.cpp:124:10:uint16_t EEPROMControl::GetConfigHardwareRegisters(uint8_t*, uint16_t)	24	static
eepromControl.cpp:137:21:ParameterDescriptor EEPROMControl::GetParameterDescriptor(uint8_t)	80	static
eepromControl.cpp:162:9:uint8_t EEPROMControl::GetCurrentPreset()	24	static
stl_tree.h:673:9:std::_Rb_tree<short unsigned int, std::pair<const short unsigned int, short unsigned int>, std::_Select1st<std::pair<const short unsigned int, short unsigned int> >, std::less<short unsigned int>, std::allocator<std::pair<const short unsigned int, short unsigned int> > >::_Rb_tree_impl<std::less<short unsigned int>, true>::~_Rb_tree_impl()	16	static
stl_tree.h:939:7:std::_Rb_tree<_Key, _Val, _KeyOfValue, _Compare, _Alloc>::_Rb_tree() [with _Key = short unsigned int; _Val = std::pair<const short unsigned int, short unsigned int>; _KeyOfValue = std::_Select1st<std::pair<const short unsigned int, short unsigned int> >; _Compare = std::less<short unsigned int>; _Alloc = std::allocator<std::pair<const short unsigned int, short unsigned int> >]	16	static
stl_map.h:183:7:std::map<_Key, _Tp, _Compare, _Alloc>::map() [with _Key = short unsigned int; _Tp = short unsigned int; _Compare = std::less<short unsigned int>; _Alloc = std::allocator<std::pair<const short unsigned int, short unsigned int> >]	16	static
stl_map.h:300:7:std::map<_Key, _Tp, _Compare, _Alloc>::~map() [with _Key = short unsigned int; _Tp = short unsigned int; _Compare = std::less<short unsigned int>; _Alloc = std::allocator<std::pair<const short unsigned int, short unsigned int> >]	16	static
eepromControl.cpp:171:30:std::map<short unsigned int, short unsigned int> EEPROMControl::GetPresetValues(int)	48	static
eepromControl.cpp:201:6:void EEPROMControl::SetPresetValues(uint8_t, std::map<short unsigned int, short unsigned int>)	56	static
eepromControl.cpp:236:6:void EEPROMControl::ReadTOC()	88	static
eepromControl.cpp:275:10:uint32_t EEPROMControl::GetConfigBaseAddress(uint8_t)	24	static
eepromControl.cpp:286:6:void EEPROMControl::SetLastSelectedPresetIndex(uint8_t)	16	static
stl_vector.h:128:2:std::_Vector_base<_Tp, _Alloc>::_Vector_impl::_Vector_impl() [with _Tp = ConfigHeader; _Alloc = std::allocator<ConfigHeader>]	16	static
allocator.h:153:7:std::allocator< <template-parameter-1-1> >::~allocator() [with _Tp = ConfigHeader]	16	static
stl_vector.h:330:7:std::_Vector_base<_Tp, _Alloc>::~_Vector_base() [with _Tp = ConfigHeader; _Alloc = std::allocator<ConfigHeader>]	16	static
stl_vector.h:675:7:std::vector<_Tp, _Alloc>::~vector() [with _Tp = ConfigHeader; _Alloc = std::allocator<ConfigHeader>]	24	static
stl_vector.h:1495:7:void std::vector<_Tp, _Alloc>::clear() [with _Tp = ConfigHeader; _Alloc = std::allocator<ConfigHeader>]	16	static
stl_vector.h:915:7:std::vector<_Tp, _Alloc>::size_type std::vector<_Tp, _Alloc>::size() const [with _Tp = ConfigHeader; _Alloc = std::allocator<ConfigHeader>]	16	static
stl_vector.h:1040:7:std::vector<_Tp, _Alloc>::reference std::vector<_Tp, _Alloc>::operator[](std::vector<_Tp, _Alloc>::size_type) [with _Tp = ConfigHeader; _Alloc = std::allocator<ConfigHeader>]	16	static
stl_tree.h:680:4:std::_Rb_tree<_Key, _Val, _KeyOfValue, _Compare, _Alloc>::_Rb_tree_impl<_Key_compare, <anonymous> >::_Rb_tree_impl() [with _Key_compare = std::less<short unsigned int>; bool <anonymous> = true; _Key = short unsigned int; _Val = std::pair<const short unsigned int, short unsigned int>; _KeyOfValue = std::_Select1st<std::pair<const short unsigned int, short unsigned int> >; _Compare = std::less<short unsigned int>; _Alloc = std::allocator<std::pair<const short unsigned int, short unsigned int> >]	16	static
allocator.h:153:7:std::allocator< <template-parameter-1-1> >::~allocator() [with _Tp = std::_Rb_tree_node<std::pair<const short unsigned int, short unsigned int> >]	16	static
stl_tree.h:994:7:std::_Rb_tree<_Key, _Val, _KeyOfValue, _Compare, _Alloc>::~_Rb_tree() [with _Key = short unsigned int; _Val = std::pair<const short unsigned int, short unsigned int>; _KeyOfValue = std::_Select1st<std::pair<const short unsigned int, short unsigned int> >; _Compare = std::less<short unsigned int>; _Alloc = std::allocator<std::pair<const short unsigned int, short unsigned int> >]	16	static
stl_pair.h:341:12:constexpr std::pair<_T1, _T2>::pair(_U1&&, _U2&&) [with _U1 = short unsigned int&; _U2 = short unsigned int&; typename std::enable_if<(std::_PCC<true, _T1, _T2>::_MoveConstructiblePair<_U1, _U2>() && std::_PCC<true, _T1, _T2>::_ImplicitlyMoveConvertiblePair<_U1, _U2>()), bool>::type <anonymous> = true; _T1 = short unsigned int; _T2 = short unsigned int]	24	static
stl_map.h:814:2:std::__enable_if_t<std::is_constructible<std::pair<const _Key, _Tp>, _Pair>::value, std::pair<typename std::_Rb_tree<_Key, std::pair<const _Key, _Tp>, std::_Select1st<std::pair<const _Key, _Tp> >, _Compare, typename __gnu_cxx::__alloc_traits<_Allocator>::rebind<std::pair<const _Key, _Tp> >::other>::iterator, bool> > std::map<_Key, _Tp, _Compare, _Alloc>::insert(_Pair&&) [with _Pair = std::pair<short unsigned int, short unsigned int>; _Key = short unsigned int; _Tp = short unsigned int; _Compare = std::less<short unsigned int>; _Alloc = std::allocator<std::pair<const short unsigned int, short unsigned int> >]	32	static
stl_map.h:468:7:std::map<_Key, _Tp, _Compare, _Alloc>::size_type std::map<_Key, _Tp, _Compare, _Alloc>::size() const [with _Key = short unsigned int; _Tp = short unsigned int; _Compare = std::less<short unsigned int>; _Alloc = std::allocator<std::pair<const short unsigned int, short unsigned int> >]	16	static
stl_map.h:490:7:std::map<_Key, _Tp, _Compare, _Alloc>::mapped_type& std::map<_Key, _Tp, _Compare, _Alloc>::operator[](const key_type&) [with _Key = short unsigned int; _Tp = short unsigned int; _Compare = std::less<short unsigned int>; _Alloc = std::allocator<std::pair<const short unsigned int, short unsigned int> >]	56	static
stl_vector.h:1184:7:void std::vector<_Tp, _Alloc>::push_back(const value_type&) [with _Tp = ConfigHeader; _Alloc = std::allocator<ConfigHeader>]	16	static
stl_vector.h:1089:7:std::vector<_Tp, _Alloc>::reference std::vector<_Tp, _Alloc>::at(std::vector<_Tp, _Alloc>::size_type) [with _Tp = ConfigHeader; _Alloc = std::allocator<ConfigHeader>]	16	static
allocator.h:138:7:std::allocator< <template-parameter-1-1> >::allocator() [with _Tp = ConfigHeader]	16	static
stl_vector.h:94:2:std::_Vector_base<_Tp, _Alloc>::_Vector_impl_data::_Vector_impl_data() [with _Tp = ConfigHeader; _Alloc = std::allocator<ConfigHeader>]	16	static
new_allocator.h:89:7:__gnu_cxx::new_allocator<_Tp>::~new_allocator() [with _Tp = ConfigHeader]	16	static
stl_vector.h:347:7:void std::_Vector_base<_Tp, _Alloc>::_M_deallocate(std::_Vector_base<_Tp, _Alloc>::pointer, std::size_t) [with _Tp = ConfigHeader; _Alloc = std::allocator<ConfigHeader>]	24	static
stl_vector.h:273:7:std::_Vector_base<_Tp, _Alloc>::_Tp_alloc_type& std::_Vector_base<_Tp, _Alloc>::_M_get_Tp_allocator() [with _Tp = ConfigHeader; _Alloc = std::allocator<ConfigHeader>]	16	static
stl_construct.h:203:5:void std::_Destroy(_ForwardIterator, _ForwardIterator, std::allocator<_T2>&) [with _ForwardIterator = ConfigHeader*; _Tp = ConfigHeader]	24	static
stl_vector.h:1789:7:void std::vector<_Tp, _Alloc>::_M_erase_at_end(std::vector<_Tp, _Alloc>::pointer) [with _Tp = ConfigHeader; _Alloc = std::allocator<ConfigHeader>]	32	static
allocator.h:138:7:std::allocator< <template-parameter-1-1> >::allocator() [with _Tp = std::_Rb_tree_node<std::pair<const short unsigned int, short unsigned int> >]	16	static
stl_tree.h:146:7:std::_Rb_tree_key_compare<_Key_compare>::_Rb_tree_key_compare() [with _Key_compare = std::less<short unsigned int>]	16	static
new_allocator.h:89:7:__gnu_cxx::new_allocator<_Tp>::~new_allocator() [with _Tp = std::_Rb_tree_node<std::pair<const short unsigned int, short unsigned int> >]	16	static
stl_tree.h:1907:5:void std::_Rb_tree<_Key, _Val, _KeyOfValue, _Compare, _Alloc>::_M_erase(std::_Rb_tree<_Key, _Val, _KeyOfValue, _Compare, _Alloc>::_Link_type) [with _Key = short unsigned int; _Val = std::pair<const short unsigned int, short unsigned int>; _KeyOfValue = std::_Select1st<std::pair<const short unsigned int, short unsigned int> >; _Compare = std::less<short unsigned int>; _Alloc = std::allocator<std::pair<const short unsigned int, short unsigned int> >]	24	static
stl_tree.h:744:7:std::_Rb_tree_node<_Val>* std::_Rb_tree<_Key, _Val, _KeyOfValue, _Compare, _Alloc>::_M_begin() [with _Key = short unsigned int; _Val = std::pair<const short unsigned int, short unsigned int>; _KeyOfValue = std::_Select1st<std::pair<const short unsigned int, short unsigned int> >; _Compare = std::less<short unsigned int>; _Alloc = std::allocator<std::pair<const short unsigned int, short unsigned int> >]	16	static
move.h:74:5:constexpr _Tp&& std::forward(typename std::remove_reference<_Tp>::type&) [with _Tp = short unsigned int&]	16	static
move.h:74:5:constexpr _Tp&& std::forward(typename std::remove_reference<_Tp>::type&) [with _Tp = std::pair<short unsigned int, short unsigned int>]	16	static
stl_tree.h:2405:7:) [with _Args = {std::pair<short unsigned int, short unsigned int>}; _Key = short unsigned int; _Val = std::pair<const short unsigned int, short unsigned int>; _KeyOfValue = std::_Select1st<std::pair<const short unsigned int, short unsigned int> >; _Compare = std::less<short unsigned int>; _Alloc = std::allocator<std::pair<const short unsigned int, short unsigned int> >]	56	static
stl_tree.h:1042:7:std::_Rb_tree<_Key, _Val, _KeyOfValue, _Compare, _Alloc>::size_type std::_Rb_tree<_Key, _Val, _KeyOfValue, _Compare, _Alloc>::size() const [with _Key = short unsigned int; _Val = std::pair<const short unsigned int, short unsigned int>; _KeyOfValue = std::_Select1st<std::pair<const short unsigned int, short unsigned int> >; _Compare = std::less<short unsigned int>; _Alloc = std::allocator<std::pair<const short unsigned int, short unsigned int> >]	16	static
stl_map.h:1257:7:std::map<_Key, _Tp, _Compare, _Alloc>::iterator std::map<_Key, _Tp, _Compare, _Alloc>::lower_bound(const key_type&) [with _Key = short unsigned int; _Tp = short unsigned int; _Compare = std::less<short unsigned int>; _Alloc = std::allocator<std::pair<const short unsigned int, short unsigned int> >]	16	static
stl_map.h:372:7:std::map<_Key, _Tp, _Compare, _Alloc>::iterator std::map<_Key, _Tp, _Compare, _Alloc>::end() [with _Key = short unsigned int; _Tp = short unsigned int; _Compare = std::less<short unsigned int>; _Alloc = std::allocator<std::pair<const short unsigned int, short unsigned int> >]	16	static
stl_tree.h:315:7:bool std::operator==(const _Self&, const _Self&)	16	static
stl_map.h:1141:7:std::map<_Key, _Tp, _Compare, _Alloc>::key_compare std::map<_Key, _Tp, _Compare, _Alloc>::key_comp() const [with _Key = short unsigned int; _Tp = short unsigned int; _Compare = std::less<short unsigned int>; _Alloc = std::allocator<std::pair<const short unsigned int, short unsigned int> >]	24	static
stl_tree.h:277:7:_Tp& std::_Rb_tree_iterator<_Tp>::operator*() const [with _Tp = std::pair<const short unsigned int, short unsigned int>]	16	static
stl_function.h:385:7:constexpr bool std::less<_Tp>::operator()(const _Tp&, const _Tp&) const [with _Tp = short unsigned int]	24	static
tuple:588:19: (_Elements) >= 1)), bool>::type <anonymous> = true; _Elements = {const short unsigned int&}]	16	static
stl_tree.h:348:7:std::_Rb_tree_const_iterator<_Tp>::_Rb_tree_const_iterator(const iterator&) [with _Tp = std::pair<const short unsigned int, short unsigned int>]	16	static
stl_tree.h:2452:7:) [with _Args = {const std::piecewise_construct_t&, std::tuple<const short unsigned int&>, std::tuple<>}; _Key = short unsigned int; _Val = std::pair<const short unsigned int, short unsigned int>; _KeyOfValue = std::_Select1st<std::pair<const short unsigned int, short unsigned int> >; _Compare = std::less<short unsigned int>; _Alloc = std::allocator<std::pair<const short unsigned int, short unsigned int> >]	48	static
alloc_traits.h:482:2:) [with _Up = ConfigHeader; _Args = {const ConfigHeader&}; _Tp = ConfigHeader]	24	static
stl_vector.h:826:7:std::vector<_Tp, _Alloc>::iterator std::vector<_Tp, _Alloc>::end() [with _Tp = ConfigHeader; _Alloc = std::allocator<ConfigHeader>]	24	static
stl_vector.h:441:7:static constexpr bool std::vector<_Tp, _Alloc>::_S_use_relocate() [with _Tp = ConfigHeader; _Alloc = std::allocator<ConfigHeader>]	16	static
stl_vector.h:428:7:static constexpr bool std::vector<_Tp, _Alloc>::_S_nothrow_relocate(std::true_type) [with _Tp = ConfigHeader; _Alloc = std::allocator<ConfigHeader>]	16	static
vector.tcc:426:7:) [with _Args = {const ConfigHeader&}; _Tp = ConfigHeader; _Alloc = std::allocator<ConfigHeader>]	64	static
stl_vector.h:1067:7:void std::vector<_Tp, _Alloc>::_M_range_check(std::vector<_Tp, _Alloc>::size_type) const [with _Tp = ConfigHeader; _Alloc = std::allocator<ConfigHeader>]	16	static
new_allocator.h:80:7:__gnu_cxx::new_allocator<_Tp>::new_allocator() [with _Tp = ConfigHeader]	16	static
alloc_traits.h:469:7:static void std::allocator_traits<std::allocator<_Tp1> >::deallocate(std::allocator_traits<std::allocator<_Tp1> >::allocator_type&, std::allocator_traits<std::allocator<_Tp1> >::pointer, std::allocator_traits<std::allocator<_Tp1> >::size_type) [with _Tp = ConfigHeader]	24	static
stl_construct.h:127:5:void std::_Destroy(_ForwardIterator, _ForwardIterator) [with _ForwardIterator = ConfigHeader*]	16	static
new_allocator.h:80:7:__gnu_cxx::new_allocator<_Tp>::new_allocator() [with _Tp = std::_Rb_tree_node<std::pair<const short unsigned int, short unsigned int> >]	16	static
stl_tree.h:797:7:static std::_Rb_tree_node<_Val>* std::_Rb_tree<_Key, _Val, _KeyOfValue, _Compare, _Alloc>::_S_right(std::_Rb_tree<_Key, _Val, _KeyOfValue, _Compare, _Alloc>::_Base_ptr) [with _Key = short unsigned int; _Val = std::pair<const short unsigned int, short unsigned int>; _KeyOfValue = std::_Select1st<std::pair<const short unsigned int, short unsigned int> >; _Compare = std::less<short unsigned int>; _Alloc = std::allocator<std::pair<const short unsigned int, short unsigned int> >]	16	static
stl_tree.h:789:7:static std::_Rb_tree_node<_Val>* std::_Rb_tree<_Key, _Val, _KeyOfValue, _Compare, _Alloc>::_S_left(std::_Rb_tree<_Key, _Val, _KeyOfValue, _Compare, _Alloc>::_Base_ptr) [with _Key = short unsigned int; _Val = std::pair<const short unsigned int, short unsigned int>; _KeyOfValue = std::_Select1st<std::pair<const short unsigned int, short unsigned int> >; _Compare = std::less<short unsigned int>; _Alloc = std::allocator<std::pair<const short unsigned int, short unsigned int> >]	16	static
stl_tree.h:648:7:void std::_Rb_tree<_Key, _Val, _KeyOfValue, _Compare, _Alloc>::_M_drop_node(std::_Rb_tree<_Key, _Val, _KeyOfValue, _Compare, _Alloc>::_Link_type) [with _Key = short unsigned int; _Val = std::pair<const short unsigned int, short unsigned int>; _KeyOfValue = std::_Select1st<std::pair<const short unsigned int, short unsigned int> >; _Compare = std::less<short unsigned int>; _Alloc = std::allocator<std::pair<const short unsigned int, short unsigned int> >]	16	static
stl_tree.h:628:2:) [with _Args = {std::pair<short unsigned int, short unsigned int>}; _Key = short unsigned int; _Val = std::pair<const short unsigned int, short unsigned int>; _KeyOfValue = std::_Select1st<std::pair<const short unsigned int, short unsigned int> >; _Compare = std::less<short unsigned int>; _Alloc = std::allocator<std::pair<const short unsigned int, short unsigned int> >]	24	static
stl_tree.h:2085:5:std::pair<std::_Rb_tree_node_base*, std::_Rb_tree_node_base*> std::_Rb_tree<_Key, _Val, _KeyOfValue, _Compare, _Alloc>::_M_get_insert_unique_pos(const key_type&) [with _Key = short unsigned int; _Val = std::pair<const short unsigned int, short unsigned int>; _KeyOfValue = std::_Select1st<std::pair<const short unsigned int, short unsigned int> >; _Compare = std::less<short unsigned int>; _Alloc = std::allocator<std::pair<const short unsigned int, short unsigned int> >]	56	static
stl_tree.h:767:7:static const _Key& std::_Rb_tree<_Key, _Val, _KeyOfValue, _Compare, _Alloc>::_S_key(std::_Rb_tree<_Key, _Val, _KeyOfValue, _Compare, _Alloc>::_Const_Link_type) [with _Key = short unsigned int; _Val = std::pair<const short unsigned int, short unsigned int>; _KeyOfValue = std::_Select1st<std::pair<const short unsigned int, short unsigned int> >; _Compare = std::less<short unsigned int>; _Alloc = std::allocator<std::pair<const short unsigned int, short unsigned int> >]	24	static
stl_tree.h:2354:5:std::_Rb_tree<_Key, _Val, _KeyOfValue, _Compare, _Alloc>::iterator std::_Rb_tree<_Key, _Val, _KeyOfValue, _Compare, _Alloc>::_M_insert_node(std::_Rb_tree<_Key, _Val, _KeyOfValue, _Compare, _Alloc>::_Base_ptr, std::_Rb_tree<_Key, _Val, _KeyOfValue, _Compare, _Alloc>::_Base_ptr, std::_Rb_tree<_Key, _Val, _KeyOfValue, _Compare, _Alloc>::_Link_type) [with _Key = short unsigned int; _Val = std::pair<const short unsigned int, short unsigned int>; _KeyOfValue = std::_Select1st<std::pair<const short unsigned int, short unsigned int> >; _Compare = std::less<short unsigned int>; _Alloc = std::allocator<std::pair<const short unsigned int, short unsigned int> >]	40	static
stl_pair.h:341:12:constexpr std::pair<_T1, _T2>::pair(_U1&&, _U2&&) [with _U1 = std::_Rb_tree_iterator<std::pair<const short unsigned int, short unsigned int> >; _U2 = bool; typename std::enable_if<(std::_PCC<true, _T1, _T2>::_MoveConstructiblePair<_U1, _U2>() && std::_PCC<true, _T1, _T2>::_ImplicitlyMoveConvertiblePair<_U1, _U2>()), bool>::type <anonymous> = true; _T1 = std::_Rb_tree_iterator<std::pair<const short unsigned int, short unsigned int> >; _T2 = bool]	24	static
stl_tree.h:273:7:std::_Rb_tree_iterator<_Tp>::_Rb_tree_iterator(std::_Rb_tree_iterator<_Tp>::_Base_ptr) [with _Tp = std::pair<const short unsigned int, short unsigned int>]	16	static
stl_tree.h:1281:7:std::_Rb_tree<_Key, _Val, _KeyOfValue, _Compare, _Alloc>::iterator std::_Rb_tree<_Key, _Val, _KeyOfValue, _Compare, _Alloc>::lower_bound(const key_type&) [with _Key = short unsigned int; _Val = std::pair<const short unsigned int, short unsigned int>; _KeyOfValue = std::_Select1st<std::pair<const short unsigned int, short unsigned int> >; _Compare = std::less<short unsigned int>; _Alloc = std::allocator<std::pair<const short unsigned int, short unsigned int> >]	24	static
stl_tree.h:1014:7:std::_Rb_tree<_Key, _Val, _KeyOfValue, _Compare, _Alloc>::iterator std::_Rb_tree<_Key, _Val, _KeyOfValue, _Compare, _Alloc>::end() [with _Key = short unsigned int; _Val = std::pair<const short unsigned int, short unsigned int>; _KeyOfValue = std::_Select1st<std::pair<const short unsigned int, short unsigned int> >; _Compare = std::less<short unsigned int>; _Alloc = std::allocator<std::pair<const short unsigned int, short unsigned int> >]	24	static
stl_tree.h:1002:7:_Compare std::_Rb_tree<_Key, _Val, _KeyOfValue, _Compare, _Alloc>::key_comp() const [with _Key = short unsigned int; _Val = std::pair<const short unsigned int, short unsigned int>; _KeyOfValue = std::_Select1st<std::pair<const short unsigned int, short unsigned int> >; _Compare = std::less<short unsigned int>; _Alloc = std::allocator<std::pair<const short unsigned int, short unsigned int> >]	16	static
stl_tree.h:234:7:_Val* std::_Rb_tree_node<_Val>::_M_valptr() [with _Val = std::pair<const short unsigned int, short unsigned int>]	16	static
tuple:343:17:constexpr std::_Tuple_impl<_Idx, _Head>::_Tuple_impl(const _Head&) [with unsigned int _Idx = 0; _Head = const short unsigned int&]	16	static
move.h:74:5:constexpr _Tp&& std::forward(typename std::remove_reference<_Tp>::type&) [with _Tp = const std::piecewise_construct_t&]	16	static
move.h:74:5:constexpr _Tp&& std::forward(typename std::remove_reference<_Tp>::type&) [with _Tp = std::tuple<const short unsigned int&>]	16	static
move.h:74:5:constexpr _Tp&& std::forward(typename std::remove_reference<_Tp>::type&) [with _Tp = std::tuple<>]	16	static
stl_tree.h:628:2:) [with _Args = {const std::piecewise_construct_t&, std::tuple<const short unsigned int&>, std::tuple<>}; _Key = short unsigned int; _Val = std::pair<const short unsigned int, short unsigned int>; _KeyOfValue = std::_Select1st<std::pair<const short unsigned int, short unsigned int> >; _Compare = std::less<short unsigned int>; _Alloc = std::allocator<std::pair<const short unsigned int, short unsigned int> >]	48	static
stl_tree.h:2187:5:std::pair<std::_Rb_tree_node_base*, std::_Rb_tree_node_base*> std::_Rb_tree<_Key, _Val, _KeyOfValue, _Compare, _Alloc>::_M_get_insert_hint_unique_pos(std::_Rb_tree<_Key, _Val, _KeyOfValue, _Compare, _Alloc>::const_iterator, const key_type&) [with _Key = short unsigned int; _Val = std::pair<const short unsigned int, short unsigned int>; _KeyOfValue = std::_Select1st<std::pair<const short unsigned int, short unsigned int> >; _Compare = std::less<short unsigned int>; _Alloc = std::allocator<std::pair<const short unsigned int, short unsigned int> >]	64	static
move.h:74:5:constexpr _Tp&& std::forward(typename std::remove_reference<_Tp>::type&) [with _Tp = const ConfigHeader&]	16	static
new_allocator.h:144:2:) [with _Up = ConfigHeader; _Args = {const ConfigHeader&}; _Tp = ConfigHeader]	32	static
stl_iterator.h:806:7:__gnu_cxx::__normal_iterator<_Iterator, _Container>::__normal_iterator(const _Iterator&) [with _Iterator = ConfigHeader*; _Container = std::vector<ConfigHeader>]	16	static
stl_vector.h:1753:7:std::vector<_Tp, _Alloc>::size_type std::vector<_Tp, _Alloc>::_M_check_len(std::vector<_Tp, _Alloc>::size_type, const char*) const [with _Tp = ConfigHeader; _Alloc = std::allocator<ConfigHeader>]	40	static
stl_vector.h:808:7:std::vector<_Tp, _Alloc>::iterator std::vector<_Tp, _Alloc>::begin() [with _Tp = ConfigHeader; _Alloc = std::allocator<ConfigHeader>]	24	static
stl_iterator.h:989:5:typename __gnu_cxx::__normal_iterator<_Iterator, _Container>::difference_type __gnu_cxx::operator-(const __gnu_cxx::__normal_iterator<_Iterator, _Container>&, const __gnu_cxx::__normal_iterator<_Iterator, _Container>&) [with _Iterator = ConfigHeader*; _Container = std::vector<ConfigHeader>]	24	static
stl_vector.h:340:7:std::_Vector_base<_Tp, _Alloc>::pointer std::_Vector_base<_Tp, _Alloc>::_M_allocate(std::size_t) [with _Tp = ConfigHeader; _Alloc = std::allocator<ConfigHeader>]	16	static
stl_vector.h:462:7:static std::vector<_Tp, _Alloc>::pointer std::vector<_Tp, _Alloc>::_S_relocate(std::vector<_Tp, _Alloc>::pointer, std::vector<_Tp, _Alloc>::pointer, std::vector<_Tp, _Alloc>::pointer, std::vector<_Tp, _Alloc>::_Tp_alloc_type&) [with _Tp = ConfigHeader; _Alloc = std::allocator<ConfigHeader>]	48	static
stl_iterator.h:871:7:const _Iterator& __gnu_cxx::__normal_iterator<_Iterator, _Container>::base() const [with _Iterator = ConfigHeader*; _Container = std::vector<ConfigHeader>]	16	static
stl_uninitialized.h:323:5:_ForwardIterator std::__uninitialized_move_if_noexcept_a(_InputIterator, _InputIterator, _ForwardIterator, _Allocator&) [with _InputIterator = ConfigHeader*; _ForwardIterator = ConfigHeader*; _Allocator = std::allocator<ConfigHeader>]	32	static
alloc_traits.h:495:2:static void std::allocator_traits<std::allocator<_Tp1> >::destroy(std::allocator_traits<std::allocator<_Tp1> >::allocator_type&, _Up*) [with _Up = ConfigHeader; _Tp = ConfigHeader]	16	static
new_allocator.h:119:7:void __gnu_cxx::new_allocator<_Tp>::deallocate(__gnu_cxx::new_allocator<_Tp>::pointer, __gnu_cxx::new_allocator<_Tp>::size_type) [with _Tp = ConfigHeader]	24	static
stl_construct.h:117:9:static void std::_Destroy_aux<true>::__destroy(_ForwardIterator, _ForwardIterator) [with _ForwardIterator = ConfigHeader*]	16	static
stl_tree.h:637:7:void std::_Rb_tree<_Key, _Val, _KeyOfValue, _Compare, _Alloc>::_M_destroy_node(std::_Rb_tree<_Key, _Val, _KeyOfValue, _Compare, _Alloc>::_Link_type) [with _Key = short unsigned int; _Val = std::pair<const short unsigned int, short unsigned int>; _KeyOfValue = std::_Select1st<std::pair<const short unsigned int, short unsigned int> >; _Compare = std::less<short unsigned int>; _Alloc = std::allocator<std::pair<const short unsigned int, short unsigned int> >]	24	static
stl_tree.h:583:7:void std::_Rb_tree<_Key, _Val, _KeyOfValue, _Compare, _Alloc>::_M_put_node(std::_Rb_tree<_Key, _Val, _KeyOfValue, _Compare, _Alloc>::_Link_type) [with _Key = short unsigned int; _Val = std::pair<const short unsigned int, short unsigned int>; _KeyOfValue = std::_Select1st<std::pair<const short unsigned int, short unsigned int> >; _Compare = std::less<short unsigned int>; _Alloc = std::allocator<std::pair<const short unsigned int, short unsigned int> >]	16	static
stl_tree.h:579:7:std::_Rb_tree_node<_Val>* std::_Rb_tree<_Key, _Val, _KeyOfValue, _Compare, _Alloc>::_M_get_node() [with _Key = short unsigned int; _Val = std::pair<const short unsigned int, short unsigned int>; _KeyOfValue = std::_Select1st<std::pair<const short unsigned int, short unsigned int> >; _Compare = std::less<short unsigned int>; _Alloc = std::allocator<std::pair<const short unsigned int, short unsigned int> >]	16	static
stl_tree.h:609:2:) [with _Args = {std::pair<short unsigned int, short unsigned int>}; _Key = short unsigned int; _Val = std::pair<const short unsigned int, short unsigned int>; _KeyOfValue = std::_Select1st<std::pair<const short unsigned int, short unsigned int> >; _Compare = std::less<short unsigned int>; _Alloc = std::allocator<std::pair<const short unsigned int, short unsigned int> >]	32	static
stl_tree.h:755:7:std::_Rb_tree_node_base* std::_Rb_tree<_Key, _Val, _KeyOfValue, _Compare, _Alloc>::_M_end() [with _Key = short unsigned int; _Val = std::pair<const short unsigned int, short unsigned int>; _KeyOfValue = std::_Select1st<std::pair<const short unsigned int, short unsigned int> >; _Compare = std::less<short unsigned int>; _Alloc = std::allocator<std::pair<const short unsigned int, short unsigned int> >]	16	static
stl_tree.h:1006:7:std::_Rb_tree<_Key, _Val, _KeyOfValue, _Compare, _Alloc>::iterator std::_Rb_tree<_Key, _Val, _KeyOfValue, _Compare, _Alloc>::begin() [with _Key = short unsigned int; _Val = std::pair<const short unsigned int, short unsigned int>; _KeyOfValue = std::_Select1st<std::pair<const short unsigned int, short unsigned int> >; _Compare = std::less<short unsigned int>; _Alloc = std::allocator<std::pair<const short unsigned int, short unsigned int> >]	24	static
stl_pair.h:341:12:constexpr std::pair<_T1, _T2>::pair(_U1&&, _U2&&) [with _U1 = std::_Rb_tree_node<std::pair<const short unsigned int, short unsigned int> >*&; _U2 = std::_Rb_tree_node_base*&; typename std::enable_if<(std::_PCC<true, _T1, _T2>::_MoveConstructiblePair<_U1, _U2>() && std::_PCC<true, _T1, _T2>::_ImplicitlyMoveConvertiblePair<_U1, _U2>()), bool>::type <anonymous> = true; _T1 = std::_Rb_tree_node_base*; _T2 = std::_Rb_tree_node_base*]	24	static
stl_tree.h:300:7:std::_Rb_tree_iterator<_Tp>::_Self& std::_Rb_tree_iterator<_Tp>::operator--() [with _Tp = std::pair<const short unsigned int, short unsigned int>]	16	static
stl_tree.h:809:7:static const _Key& std::_Rb_tree<_Key, _Val, _KeyOfValue, _Compare, _Alloc>::_S_key(std::_Rb_tree<_Key, _Val, _KeyOfValue, _Compare, _Alloc>::_Const_Base_ptr) [with _Key = short unsigned int; _Val = std::pair<const short unsigned int, short unsigned int>; _KeyOfValue = std::_Select1st<std::pair<const short unsigned int, short unsigned int> >; _Compare = std::less<short unsigned int>; _Alloc = std::allocator<std::pair<const short unsigned int, short unsigned int> >]	16	static
stl_pair.h:311:18:constexpr std::pair<_T1, _T2>::pair(_U1&&, const _T2&) [with _U1 = std::_Rb_tree_node_base*&; typename std::enable_if<std::_PCC<true, _T1, _T2>::_MoveCopyPair<true, _U1, _T2>(), bool>::type <anonymous> = true; _T1 = std::_Rb_tree_node_base*; _T2 = std::_Rb_tree_node_base*]	24	static
stl_tree.h:238:7:const _Val* std::_Rb_tree_node<_Val>::_M_valptr() const [with _Val = std::pair<const short unsigned int, short unsigned int>]	16	static
stl_function.h:1155:7:const typename _Pair::first_type& std::_Select1st<_Pair>::operator()(const _Pair&) const [with _Pair = std::pair<const short unsigned int, short unsigned int>]	16	static
move.h:74:5:constexpr _Tp&& std::forward(typename std::remove_reference<_Tp>::type&) [with _Tp = std::_Rb_tree_iterator<std::pair<const short unsigned int, short unsigned int> >]	16	static
move.h:74:5:constexpr _Tp&& std::forward(typename std::remove_reference<_Tp>::type&) [with _Tp = bool]	16	static
stl_tree.h:1924:5:std::_Rb_tree<_Key, _Val, _KeyOfValue, _Compare, _Alloc>::iterator std::_Rb_tree<_Key, _Val, _KeyOfValue, _Compare, _Alloc>::_M_lower_bound(std::_Rb_tree<_Key, _Val, _KeyOfValue, _Compare, _Alloc>::_Link_type, std::_Rb_tree<_Key, _Val, _KeyOfValue, _Compare, _Alloc>::_Base_ptr, const _Key&) [with _Key = short unsigned int; _Val = std::pair<const short unsigned int, short unsigned int>; _KeyOfValue = std::_Select1st<std::pair<const short unsigned int, short unsigned int> >; _Compare = std::less<short unsigned int>; _Alloc = std::allocator<std::pair<const short unsigned int, short unsigned int> >]	40	static
aligned_buffer.h:72:7:_Tp* __gnu_cxx::__aligned_membuf<_Tp>::_M_ptr() [with _Tp = std::pair<const short unsigned int, short unsigned int>]	16	static
tuple:125:17:constexpr std::_Head_base<_Idx, _Head, false>::_Head_base(const _Head&) [with unsigned int _Idx = 0; _Head = const short unsigned int&]	16	static
stl_tree.h:609:2:) [with _Args = {const std::piecewise_construct_t&, std::tuple<const short unsigned int&>, std::tuple<>}; _Key = short unsigned int; _Val = std::pair<const short unsigned int, short unsigned int>; _KeyOfValue = std::_Select1st<std::pair<const short unsigned int, short unsigned int> >; _Compare = std::less<short unsigned int>; _Alloc = std::allocator<std::pair<const short unsigned int, short unsigned int> >]	48	static
stl_tree.h:352:7:std::_Rb_tree_const_iterator<_Tp>::iterator std::_Rb_tree_const_iterator<_Tp>::_M_const_cast() const [with _Tp = std::pair<const short unsigned int, short unsigned int>]	24	static
stl_tree.h:736:7:std::_Rb_tree_node_base*& std::_Rb_tree<_Key, _Val, _KeyOfValue, _Compare, _Alloc>::_M_rightmost() [with _Key = short unsigned int; _Val = std::pair<const short unsigned int, short unsigned int>; _KeyOfValue = std::_Select1st<std::pair<const short unsigned int, short unsigned int> >; _Compare = std::less<short unsigned int>; _Alloc = std::allocator<std::pair<const short unsigned int, short unsigned int> >]	16	static
stl_pair.h:325:18:constexpr std::pair<_T1, _T2>::pair(const _T1&, _U2&&) [with _U2 = std::_Rb_tree_node_base*&; typename std::enable_if<std::_PCC<true, _T1, _T2>::_CopyMovePair<true, _T1, _U2>(), bool>::type <anonymous> = true; _T1 = std::_Rb_tree_node_base*; _T2 = std::_Rb_tree_node_base*]	24	static
stl_tree.h:728:7:std::_Rb_tree_node_base*& std::_Rb_tree<_Key, _Val, _KeyOfValue, _Compare, _Alloc>::_M_leftmost() [with _Key = short unsigned int; _Val = std::pair<const short unsigned int, short unsigned int>; _KeyOfValue = std::_Select1st<std::pair<const short unsigned int, short unsigned int> >; _Compare = std::less<short unsigned int>; _Alloc = std::allocator<std::pair<const short unsigned int, short unsigned int> >]	16	static
stl_pair.h:341:12:constexpr std::pair<_T1, _T2>::pair(_U1&&, _U2&&) [with _U1 = std::_Rb_tree_node_base*&; _U2 = std::_Rb_tree_node_base*&; typename std::enable_if<(std::_PCC<true, _T1, _T2>::_MoveConstructiblePair<_U1, _U2>() && std::_PCC<true, _T1, _T2>::_ImplicitlyMoveConvertiblePair<_U1, _U2>()), bool>::type <anonymous> = true; _T1 = std::_Rb_tree_node_base*; _T2 = std::_Rb_tree_node_base*]	24	static
stl_tree.h:285:7:std::_Rb_tree_iterator<_Tp>::_Self& std::_Rb_tree_iterator<_Tp>::operator++() [with _Tp = std::pair<const short unsigned int, short unsigned int>]	16	static
stl_vector.h:920:7:std::vector<_Tp, _Alloc>::size_type std::vector<_Tp, _Alloc>::max_size() const [with _Tp = ConfigHeader; _Alloc = std::allocator<ConfigHeader>]	16	static
stl_algobase.h:222:5:constexpr const _Tp& std::max(const _Tp&, const _Tp&) [with _Tp = unsigned int]	16	static
alloc_traits.h:443:7:static _Tp* std::allocator_traits<std::allocator<_Tp1> >::allocate(std::allocator_traits<std::allocator<_Tp1> >::allocator_type&, std::allocator_traits<std::allocator<_Tp1> >::size_type) [with _Tp = ConfigHeader]	16	static
stl_vector.h:450:7:static std::vector<_Tp, _Alloc>::pointer std::vector<_Tp, _Alloc>::_S_do_relocate(std::vector<_Tp, _Alloc>::pointer, std::vector<_Tp, _Alloc>::pointer, std::vector<_Tp, _Alloc>::pointer, std::vector<_Tp, _Alloc>::_Tp_alloc_type&, std::true_type) [with _Tp = ConfigHeader; _Alloc = std::allocator<ConfigHeader>]	24	static
stl_iterator.h:1242:5:_ReturnType std::__make_move_if_noexcept_iterator(_Tp*) [with _Tp = ConfigHeader; _ReturnType = std::move_iterator<ConfigHeader*>]	24	static
stl_uninitialized.h:305:5:_ForwardIterator std::__uninitialized_copy_a(_InputIterator, _InputIterator, _ForwardIterator, std::allocator<_Tp>&) [with _InputIterator = std::move_iterator<ConfigHeader*>; _ForwardIterator = ConfigHeader*; _Tp = ConfigHeader]	24	static
new_allocator.h:151:2:void __gnu_cxx::new_allocator<_Tp>::destroy(_Up*) [with _Up = ConfigHeader; _Tp = ConfigHeader]	16	static
stl_tree.h:566:7:std::_Rb_tree<_Key, _Val, _KeyOfValue, _Compare, _Alloc>::_Node_allocator& std::_Rb_tree<_Key, _Val, _KeyOfValue, _Compare, _Alloc>::_M_get_Node_allocator() [with _Key = short unsigned int; _Val = std::pair<const short unsigned int, short unsigned int>; _KeyOfValue = std::_Select1st<std::pair<const short unsigned int, short unsigned int> >; _Compare = std::less<short unsigned int>; _Alloc = std::allocator<std::pair<const short unsigned int, short unsigned int> >]	16	static
alloc_traits.h:495:2:static void std::allocator_traits<std::allocator<_Tp1> >::destroy(std::allocator_traits<std::allocator<_Tp1> >::allocator_type&, _Up*) [with _Up = std::pair<const short unsigned int, short unsigned int>; _Tp = std::_Rb_tree_node<std::pair<const short unsigned int, short unsigned int> >]	16	static
alloc_traits.h:469:7:static void std::allocator_traits<std::allocator<_Tp1> >::deallocate(std::allocator_traits<std::allocator<_Tp1> >::allocator_type&, std::allocator_traits<std::allocator<_Tp1> >::pointer, std::allocator_traits<std::allocator<_Tp1> >::size_type) [with _Tp = std::_Rb_tree_node<std::pair<const short unsigned int, short unsigned int> >]	24	static
alloc_traits.h:443:7:static _Tp* std::allocator_traits<std::allocator<_Tp1> >::allocate(std::allocator_traits<std::allocator<_Tp1> >::allocator_type&, std::allocator_traits<std::allocator<_Tp1> >::size_type) [with _Tp = std::_Rb_tree_node<std::pair<const short unsigned int, short unsigned int> >]	16	static
alloc_traits.h:482:2:) [with _Up = std::pair<const short unsigned int, short unsigned int>; _Args = {std::pair<short unsigned int, short unsigned int>}; _Tp = std::_Rb_tree_node<std::pair<const short unsigned int, short unsigned int> >]	24	static
move.h:74:5:constexpr _Tp&& std::forward(typename std::remove_reference<_Tp>::type&) [with _Tp = std::_Rb_tree_node<std::pair<const short unsigned int, short unsigned int> >*&]	16	static
move.h:74:5:constexpr _Tp&& std::forward(typename std::remove_reference<_Tp>::type&) [with _Tp = std::_Rb_tree_node_base*&]	16	static
aligned_buffer.h:76:7:const _Tp* __gnu_cxx::__aligned_membuf<_Tp>::_M_ptr() const [with _Tp = std::pair<const short unsigned int, short unsigned int>]	16	static
aligned_buffer.h:64:7:void* __gnu_cxx::__aligned_membuf<_Tp>::_M_addr() [with _Tp = std::pair<const short unsigned int, short unsigned int>]	16	static
alloc_traits.h:482:2:) [with _Up = std::pair<const short unsigned int, short unsigned int>; _Args = {const std::piecewise_construct_t&, std::tuple<const short unsigned int&>, std::tuple<>}; _Tp = std::_Rb_tree_node<std::pair<const short unsigned int, short unsigned int> >]	40	static
stl_vector.h:1773:7:static std::vector<_Tp, _Alloc>::size_type std::vector<_Tp, _Alloc>::_S_max_size(const _Tp_alloc_type&) [with _Tp = ConfigHeader; _Alloc = std::allocator<ConfigHeader>]	24	static
stl_vector.h:277:7:const _Tp_alloc_type& std::_Vector_base<_Tp, _Alloc>::_M_get_Tp_allocator() const [with _Tp = ConfigHeader; _Alloc = std::allocator<ConfigHeader>]	16	static
new_allocator.h:102:7:_Tp* __gnu_cxx::new_allocator<_Tp>::allocate(__gnu_cxx::new_allocator<_Tp>::size_type, const void*) [with _Tp = ConfigHeader]	24	static
stl_uninitialized.h:958:5:_ForwardIterator std::__relocate_a(_InputIterator, _InputIterator, _ForwardIterator, _Allocator&) [with _InputIterator = ConfigHeader*; _ForwardIterator = ConfigHeader*; _Allocator = std::allocator<ConfigHeader>]	32	static
stl_iterator.h:1057:7:std::move_iterator<_Iterator>::move_iterator(std::move_iterator<_Iterator>::iterator_type) [with _Iterator = ConfigHeader*]	16	static
stl_uninitialized.h:115:5:_ForwardIterator std::uninitialized_copy(_InputIterator, _InputIterator, _ForwardIterator) [with _InputIterator = std::move_iterator<ConfigHeader*>; _ForwardIterator = ConfigHeader*]	32	static
new_allocator.h:151:2:void __gnu_cxx::new_allocator<_Tp>::destroy(_Up*) [with _Up = std::pair<const short unsigned int, short unsigned int>; _Tp = std::_Rb_tree_node<std::pair<const short unsigned int, short unsigned int> >]	16	static
new_allocator.h:119:7:void __gnu_cxx::new_allocator<_Tp>::deallocate(__gnu_cxx::new_allocator<_Tp>::pointer, __gnu_cxx::new_allocator<_Tp>::size_type) [with _Tp = std::_Rb_tree_node<std::pair<const short unsigned int, short unsigned int> >]	24	static
new_allocator.h:102:7:_Tp* __gnu_cxx::new_allocator<_Tp>::allocate(__gnu_cxx::new_allocator<_Tp>::size_type, const void*) [with _Tp = std::_Rb_tree_node<std::pair<const short unsigned int, short unsigned int> >]	24	static
new_allocator.h:144:2:) [with _Up = std::pair<const short unsigned int, short unsigned int>; _Args = {std::pair<short unsigned int, short unsigned int>}; _Tp = std::_Rb_tree_node<std::pair<const short unsigned int, short unsigned int> >]	32	static
aligned_buffer.h:68:7:const void* __gnu_cxx::__aligned_membuf<_Tp>::_M_addr() const [with _Tp = std::pair<const short unsigned int, short unsigned int>]	16	static
tuple:642:17:constexpr std::tuple<_Elements>::tuple(std::tuple<_Elements>&&) [with _Elements = {const short unsigned int&}]	16	static
new_allocator.h:144:2:) [with _Up = std::pair<const short unsigned int, short unsigned int>; _Args = {const std::piecewise_construct_t&, std::tuple<const short unsigned int&>, std::tuple<>}; _Tp = std::_Rb_tree_node<std::pair<const short unsigned int, short unsigned int> >]	56	static
alloc_traits.h:505:7:static std::allocator_traits<std::allocator<_Tp1> >::size_type std::allocator_traits<std::allocator<_Tp1> >::max_size(const allocator_type&) [with _Tp = ConfigHeader]	16	static
stl_algobase.h:198:5:constexpr const _Tp& std::min(const _Tp&, const _Tp&) [with _Tp = unsigned int]	16	static
new_allocator.h:132:7:__gnu_cxx::new_allocator<_Tp>::size_type __gnu_cxx::new_allocator<_Tp>::max_size() const [with _Tp = ConfigHeader]	16	static
stl_algobase.h:280:5:_Iterator std::__niter_base(_Iterator) [with _Iterator = ConfigHeader*]	16	static
stl_uninitialized.h:924:5:std::__enable_if_t<std::__is_bitwise_relocatable<_Tp>::value, _Tp*> std::__relocate_a_1(_Tp*, _Tp*, _Tp*, std::allocator<_T2>&) [with _Tp = ConfigHeader; _Up = ConfigHeader]	32	static
stl_uninitialized.h:99:9:static _ForwardIterator std::__uninitialized_copy<true>::__uninit_copy(_InputIterator, _InputIterator, _ForwardIterator) [with _InputIterator = std::move_iterator<ConfigHeader*>; _ForwardIterator = ConfigHeader*]	24	static
new_allocator.h:132:7:__gnu_cxx::new_allocator<_Tp>::size_type __gnu_cxx::new_allocator<_Tp>::max_size() const [with _Tp = std::_Rb_tree_node<std::pair<const short unsigned int, short unsigned int> >]	16	static
stl_pair.h:360:12:constexpr std::pair<_T1, _T2>::pair(std::pair<_U1, _U2>&&) [with _U1 = short unsigned int; _U2 = short unsigned int; typename std::enable_if<(std::_PCC<((! std::is_same<_T1, _U1>::value) || (! std::is_same<_T2, _U2>::value)), _T1, _T2>::_MoveConstructiblePair<_U1, _U2>() && std::_PCC<((! std::is_same<_T1, _U1>::value) || (! std::is_same<_T2, _U2>::value)), _T1, _T2>::_ImplicitlyMoveConvertiblePair<_U1, _U2>()), bool>::type <anonymous> = true; _T1 = const short unsigned int; _T2 = short unsigned int]	16	static
tuple:358:7:constexpr std::_Tuple_impl<_Idx, _Head>::_Tuple_impl(std::_Tuple_impl<_Idx, _Head>&&) [with unsigned int _Idx = 0; _Head = const short unsigned int&]	24	static
tuple:1658:7:>) [with _Args1 = {const short unsigned int&}; _Args2 = {}; _T1 = const short unsigned int; _T2 = short unsigned int]	48	static
stl_algobase.h:465:5:_OI std::copy(_II, _II, _OI) [with _II = std::move_iterator<ConfigHeader*>; _OI = ConfigHeader*]	32	static
move.h:74:5:constexpr _Tp&& std::forward(typename std::remove_reference<_Tp>::type&) [with _Tp = short unsigned int]	16	static
tuple:334:7:static constexpr _Head& std::_Tuple_impl<_Idx, _Head>::_M_head(std::_Tuple_impl<_Idx, _Head>&) [with unsigned int _Idx = 0; _Head = const short unsigned int&]	16	static
move.h:74:5:constexpr _Tp&& std::forward(typename std::remove_reference<_Tp>::type&) [with _Tp = const short unsigned int&]	16	static
tuple:1670:7:_Indexes2 = {}; _T1 = const short unsigned int; _T2 = short unsigned int]	24	static
stl_iterator.h:1262:5:base())) std::__miter_base(std::move_iterator<_IteratorL>) [with _Iterator = ConfigHeader*]	16	static
stl_algobase.h:438:5:_OI std::__copy_move_a2(_II, _II, _OI) [with bool _IsMove = true; _II = ConfigHeader*; _OI = ConfigHeader*]	32	static
tuple:160:7:static constexpr _Head& std::_Head_base<_Idx, _Head, false>::_M_head(std::_Head_base<_Idx, _Head, false>&) [with unsigned int _Idx = 0; _Head = const short unsigned int&]	16	static
tuple:1320:5:>&) [with unsigned int __i = 0; _Elements = {const short unsigned int&}]	16	static
stl_iterator.h:1066:7:std::move_iterator<_Iterator>::iterator_type std::move_iterator<_Iterator>::base() const [with _Iterator = ConfigHeader*]	16	static
cpp_type_traits.h:428:5:_Iterator std::__miter_base(_Iterator) [with _Iterator = ConfigHeader*]	16	static
stl_algobase.h:393:5:_OI std::__copy_move_a(_II, _II, _OI) [with bool _IsMove = true; _II = ConfigHeader*; _OI = ConfigHeader*]	32	static
stl_algobase.h:295:5:_Iterator std::__niter_wrap(const _Iterator&, _Iterator) [with _Iterator = ConfigHeader*]	16	static
tuple:1309:5:>&) [with unsigned int __i = 0; _Head = const short unsigned int&; _Tail = {}]	16	static
stl_algobase.h:375:2:static _Tp* std::__copy_move<_IsMove, true, std::random_access_iterator_tag>::__copy_m(const _Tp*, const _Tp*, _Tp*) [with _Tp = ConfigHeader; bool _IsMove = true]	32	static
