SPI.cpp:10:1:SPI::SPI(SPI_Type*, spi_master_config_t*)	24	static
SPI.cpp:22:1:SPI::~SPI()	16	static
SPI.cpp:22:1:virtual SPI::~SPI()	16	static
SPI.cpp:28:10:status_t SPI::Transfer(uint8_t*, uint8_t*, size_t, bool, spi_ssel_t)	48	static
SPI.cpp:61:6:static void SPI::SPI_MasterCallback(SPI_Type*, spi_master_handle_t*, status_t, void*)	24	static
