USART.cpp:12:1:USART::USART(USART_Type*, uint32_t)	40	static
USART.cpp:87:1:USART::~USART()	16	static
USART.cpp:87:1:virtual USART::~USART()	16	static
USART.cpp:92:6:bool USART::TryGetMessage(uint8_t*, uint8_t, uint8_t*)	32	static
USART.cpp:120:10:status_t USART::TrySendMessage(uint8_t*, uint8_t)	24	static
USART.cpp:166:6:static void USART::USART_UserCallback(USART_Type*, usart_handle_t*, status_t, void*)	32	static
