I2C.cpp:11:1:I2C::I2C(I2C_Type*)	32	static
I2C.cpp:23:1:I2C::~I2C()	16	static
I2C.cpp:23:1:virtual I2C::~I2C()	16	static
I2C.cpp:29:10:status_t I2C::Transfer(i2c_master_transfer_t*)	24	static
I2C.cpp:53:6:static void I2C::I2C_MasterCallback(I2C_Type*, i2c_master_handle_t*, status_t, void*)	24	static
