new:173:33:void* operator new(std::size_t, void*)	16	static
gthr-default.h:229:1:int __gthread_key_delete(__gthread_key_t)	16	static
stl_tree.h:112:5:static std::_Rb_tree_node_base* std::_Rb_tree_node_base::_S_minimum(std::_Rb_tree_node_base::_Base_ptr)	16	static
stl_tree.h:126:5:static std::_Rb_tree_node_base* std::_Rb_tree_node_base::_S_maximum(std::_Rb_tree_node_base::_Base_ptr)	16	static
stl_tree.h:173:5:std::_Rb_tree_header::_Rb_tree_header()	16	static
stl_tree.h:206:5:void std::_Rb_tree_header::_M_reset()	16	static
Parameter.h:51:11:uint16_t Parameter::GetMax() const	16	static
eepromControl.h:53:10:uint8_t EEPROMControl::GetParameterCount()	16	static
stl_tree.h:673:9:std::_Rb_tree<short unsigned int, std::pair<const short unsigned int, Parameter>, std::_Select1st<std::pair<const short unsigned int, Parameter> >, std::less<short unsigned int>, std::allocator<std::pair<const short unsigned int, Parameter> > >::_Rb_tree_impl<std::less<short unsigned int>, true>::~_Rb_tree_impl()	16	static
stl_tree.h:939:7:std::_Rb_tree<_Key, _Val, _KeyOfValue, _Compare, _Alloc>::_Rb_tree() [with _Key = short unsigned int; _Val = std::pair<const short unsigned int, Parameter>; _KeyOfValue = std::_Select1st<std::pair<const short unsigned int, Parameter> >; _Compare = std::less<short unsigned int>; _Alloc = std::allocator<std::pair<const short unsigned int, Parameter> >]	16	static
stl_map.h:183:7:std::map<_Key, _Tp, _Compare, _Alloc>::map() [with _Key = short unsigned int; _Tp = Parameter; _Compare = std::less<short unsigned int>; _Alloc = std::allocator<std::pair<const short unsigned int, Parameter> >]	16	static
stl_map.h:300:7:std::map<_Key, _Tp, _Compare, _Alloc>::~map() [with _Key = short unsigned int; _Tp = Parameter; _Compare = std::less<short unsigned int>; _Alloc = std::allocator<std::pair<const short unsigned int, Parameter> >]	16	static
ParameterControl.cpp:8:1:ParameterControl::ParameterControl(EEPROMControl*, ADAU1401*)	24	static
ParameterControl.cpp:14:1:ParameterControl::~ParameterControl()	16	static
ParameterControl.cpp:14:1:virtual ParameterControl::~ParameterControl()	16	static
Parameter.h:22:7:constexpr Parameter::Parameter(const Parameter&)	24	static
stl_pair.h:208:12:std::pair<short unsigned int, Parameter>::~pair()	16	static
ParameterControl.cpp:20:6:void ParameterControl::LoadParameters()	280	static
stl_map.h:300:7:std::map<_Key, _Tp, _Compare, _Alloc>::~map() [with _Key = short unsigned int; _Tp = short unsigned int; _Compare = std::less<short unsigned int>; _Alloc = std::allocator<std::pair<const short unsigned int, short unsigned int> >]	16	static
stl_tree.h:673:9:std::_Rb_tree<short unsigned int, std::pair<const short unsigned int, short unsigned int>, std::_Select1st<std::pair<const short unsigned int, short unsigned int> >, std::less<short unsigned int>, std::allocator<std::pair<const short unsigned int, short unsigned int> > >::_Rb_tree_impl<std::less<short unsigned int>, true>::~_Rb_tree_impl()	16	static
ParameterControl.cpp:36:6:void ParameterControl::LoadPreset(uint8_t)	64	static
stl_tree.h:939:7:std::_Rb_tree<_Key, _Val, _KeyOfValue, _Compare, _Alloc>::_Rb_tree() [with _Key = short unsigned int; _Val = std::pair<const short unsigned int, short unsigned int>; _KeyOfValue = std::_Select1st<std::pair<const short unsigned int, short unsigned int> >; _Compare = std::less<short unsigned int>; _Alloc = std::allocator<std::pair<const short unsigned int, short unsigned int> >]	16	static
stl_map.h:183:7:std::map<_Key, _Tp, _Compare, _Alloc>::map() [with _Key = short unsigned int; _Tp = short unsigned int; _Compare = std::less<short unsigned int>; _Alloc = std::allocator<std::pair<const short unsigned int, short unsigned int> >]	16	static
stl_map.h:205:7:std::map<_Key, _Tp, _Compare, _Alloc>::map(const std::map<_Key, _Tp, _Compare, _Alloc>&) [with _Key = short unsigned int; _Tp = short unsigned int; _Compare = std::less<short unsigned int>; _Alloc = std::allocator<std::pair<const short unsigned int, short unsigned int> >]	16	static
ParameterControl.cpp:59:6:void ParameterControl::SaveCurrentAsPreset(uint8_t)	168	static
ParameterControl.cpp:76:6:bool ParameterControl::SetCurrentParameter(uint16_t)	16	static
ParameterControl.cpp:88:10:uint16_t ParameterControl::GetCurrentParameter()	16	static
ParameterControl.cpp:94:6:void ParameterControl::AddToCurrent(int16_t)	16	static
ParameterControl.cpp:103:6:void ParameterControl::SetCurrent(int16_t)	16	static
ParameterControl.cpp:112:10:uint16_t ParameterControl::GetCurrent()	16	static
ParameterControl.cpp:121:10:uint16_t ParameterControl::GetCurrentMax()	16	static
ParameterControl.cpp:129:10:uint16_t ParameterControl::GetParameterValue(uint16_t)	16	static
ParameterControl.cpp:137:6:void ParameterControl::SetParameterValue(uint16_t, uint16_t)	16	static
stl_tree.h:680:4:std::_Rb_tree<_Key, _Val, _KeyOfValue, _Compare, _Alloc>::_Rb_tree_impl<_Key_compare, <anonymous> >::_Rb_tree_impl() [with _Key_compare = std::less<short unsigned int>; bool <anonymous> = true; _Key = short unsigned int; _Val = std::pair<const short unsigned int, Parameter>; _KeyOfValue = std::_Select1st<std::pair<const short unsigned int, Parameter> >; _Compare = std::less<short unsigned int>; _Alloc = std::allocator<std::pair<const short unsigned int, Parameter> >]	16	static
allocator.h:153:7:std::allocator< <template-parameter-1-1> >::~allocator() [with _Tp = std::_Rb_tree_node<std::pair<const short unsigned int, Parameter> >]	16	static
stl_tree.h:994:7:std::_Rb_tree<_Key, _Val, _KeyOfValue, _Compare, _Alloc>::~_Rb_tree() [with _Key = short unsigned int; _Val = std::pair<const short unsigned int, Parameter>; _KeyOfValue = std::_Select1st<std::pair<const short unsigned int, Parameter> >; _Compare = std::less<short unsigned int>; _Alloc = std::allocator<std::pair<const short unsigned int, Parameter> >]	16	static
move.h:74:5:constexpr _Tp&& std::forward(typename std::remove_reference<_Tp>::type&) [with _Tp = Parameter&]	16	static
stl_pair.h:341:12:constexpr std::pair<_T1, _T2>::pair(_U1&&, _U2&&) [with _U1 = short unsigned int&; _U2 = Parameter&; typename std::enable_if<(std::_PCC<true, _T1, _T2>::_MoveConstructiblePair<_U1, _U2>() && std::_PCC<true, _T1, _T2>::_ImplicitlyMoveConvertiblePair<_U1, _U2>()), bool>::type <anonymous> = true; _T1 = short unsigned int; _T2 = Parameter]	32	static
stl_map.h:814:2:std::__enable_if_t<std::is_constructible<std::pair<const _Key, _Tp>, _Pair>::value, std::pair<typename std::_Rb_tree<_Key, std::pair<const _Key, _Tp>, std::_Select1st<std::pair<const _Key, _Tp> >, _Compare, typename __gnu_cxx::__alloc_traits<_Allocator>::rebind<std::pair<const _Key, _Tp> >::other>::iterator, bool> > std::map<_Key, _Tp, _Compare, _Alloc>::insert(_Pair&&) [with _Pair = std::pair<short unsigned int, Parameter>; _Key = short unsigned int; _Tp = Parameter; _Compare = std::less<short unsigned int>; _Alloc = std::allocator<std::pair<const short unsigned int, Parameter> >]	32	static
stl_tree.h:994:7:std::_Rb_tree<_Key, _Val, _KeyOfValue, _Compare, _Alloc>::~_Rb_tree() [with _Key = short unsigned int; _Val = std::pair<const short unsigned int, short unsigned int>; _KeyOfValue = std::_Select1st<std::pair<const short unsigned int, short unsigned int> >; _Compare = std::less<short unsigned int>; _Alloc = std::allocator<std::pair<const short unsigned int, short unsigned int> >]	16	static
allocator.h:141:7:std::allocator< <template-parameter-1-1> >::allocator(const std::allocator< <template-parameter-1-1> >&) [with _Tp = std::_Rb_tree_node<std::pair<const short unsigned int, short unsigned int> >]	16	static
allocator.h:153:7:std::allocator< <template-parameter-1-1> >::~allocator() [with _Tp = std::_Rb_tree_node<std::pair<const short unsigned int, short unsigned int> >]	16	static
stl_map.h:468:7:std::map<_Key, _Tp, _Compare, _Alloc>::size_type std::map<_Key, _Tp, _Compare, _Alloc>::size() const [with _Key = short unsigned int; _Tp = short unsigned int; _Compare = std::less<short unsigned int>; _Alloc = std::allocator<std::pair<const short unsigned int, short unsigned int> >]	16	static
stl_map.h:468:7:std::map<_Key, _Tp, _Compare, _Alloc>::size_type std::map<_Key, _Tp, _Compare, _Alloc>::size() const [with _Key = short unsigned int; _Tp = Parameter; _Compare = std::less<short unsigned int>; _Alloc = std::allocator<std::pair<const short unsigned int, Parameter> >]	16	static
stl_map.h:354:7:std::map<_Key, _Tp, _Compare, _Alloc>::iterator std::map<_Key, _Tp, _Compare, _Alloc>::begin() [with _Key = short unsigned int; _Tp = short unsigned int; _Compare = std::less<short unsigned int>; _Alloc = std::allocator<std::pair<const short unsigned int, short unsigned int> >]	16	static
stl_map.h:372:7:std::map<_Key, _Tp, _Compare, _Alloc>::iterator std::map<_Key, _Tp, _Compare, _Alloc>::end() [with _Key = short unsigned int; _Tp = short unsigned int; _Compare = std::less<short unsigned int>; _Alloc = std::allocator<std::pair<const short unsigned int, short unsigned int> >]	16	static
stl_tree.h:319:7:bool std::operator!=(const _Self&, const _Self&)	16	static
stl_tree.h:285:7:std::_Rb_tree_iterator<_Tp>::_Self& std::_Rb_tree_iterator<_Tp>::operator++() [with _Tp = std::pair<const short unsigned int, short unsigned int>]	16	static
stl_tree.h:277:7:_Tp& std::_Rb_tree_iterator<_Tp>::operator*() const [with _Tp = std::pair<const short unsigned int, short unsigned int>]	16	static
stl_pair.h:291:19:constexpr std::pair<_T1, _T2>::pair(const std::pair<_U1, _U2>&) [with _U1 = const short unsigned int; _U2 = short unsigned int; typename std::enable_if<(std::_PCC<((! std::is_same<_T1, _U1>::value) || (! std::is_same<_T2, _U2>::value)), _T1, _T2>::_ConstructiblePair<_U1, _U2>() && std::_PCC<((! std::is_same<_T1, _U1>::value) || (! std::is_same<_T2, _U2>::value)), _T1, _T2>::_ImplicitlyConvertiblePair<_U1, _U2>()), bool>::type <anonymous> = true; _T1 = short unsigned int; _T2 = short unsigned int]	16	static
stl_tree.h:680:4:std::_Rb_tree<_Key, _Val, _KeyOfValue, _Compare, _Alloc>::_Rb_tree_impl<_Key_compare, <anonymous> >::_Rb_tree_impl() [with _Key_compare = std::less<short unsigned int>; bool <anonymous> = true; _Key = short unsigned int; _Val = std::pair<const short unsigned int, short unsigned int>; _KeyOfValue = std::_Select1st<std::pair<const short unsigned int, short unsigned int> >; _Compare = std::less<short unsigned int>; _Alloc = std::allocator<std::pair<const short unsigned int, short unsigned int> >]	16	static
stl_map.h:354:7:std::map<_Key, _Tp, _Compare, _Alloc>::iterator std::map<_Key, _Tp, _Compare, _Alloc>::begin() [with _Key = short unsigned int; _Tp = Parameter; _Compare = std::less<short unsigned int>; _Alloc = std::allocator<std::pair<const short unsigned int, Parameter> >]	16	static
stl_map.h:372:7:std::map<_Key, _Tp, _Compare, _Alloc>::iterator std::map<_Key, _Tp, _Compare, _Alloc>::end() [with _Key = short unsigned int; _Tp = Parameter; _Compare = std::less<short unsigned int>; _Alloc = std::allocator<std::pair<const short unsigned int, Parameter> >]	16	static
stl_tree.h:319:7:bool std::operator!=(const _Self&, const _Self&)	16	static
stl_tree.h:285:7:std::_Rb_tree_iterator<_Tp>::_Self& std::_Rb_tree_iterator<_Tp>::operator++() [with _Tp = std::pair<const short unsigned int, Parameter>]	16	static
stl_tree.h:277:7:_Tp& std::_Rb_tree_iterator<_Tp>::operator*() const [with _Tp = std::pair<const short unsigned int, Parameter>]	16	static
stl_pair.h:291:19:constexpr std::pair<_T1, _T2>::pair(const std::pair<_U1, _U2>&) [with _U1 = const short unsigned int; _U2 = Parameter; typename std::enable_if<(std::_PCC<((! std::is_same<_T1, _U1>::value) || (! std::is_same<_T2, _U2>::value)), _T1, _T2>::_ConstructiblePair<_U1, _U2>() && std::_PCC<((! std::is_same<_T1, _U1>::value) || (! std::is_same<_T2, _U2>::value)), _T1, _T2>::_ImplicitlyConvertiblePair<_U1, _U2>()), bool>::type <anonymous> = true; _T1 = short unsigned int; _T2 = Parameter]	16	static
stl_pair.h:341:12:constexpr std::pair<_T1, _T2>::pair(_U1&&, _U2&&) [with _U1 = short unsigned int&; _U2 = short unsigned int&; typename std::enable_if<(std::_PCC<true, _T1, _T2>::_MoveConstructiblePair<_U1, _U2>() && std::_PCC<true, _T1, _T2>::_ImplicitlyMoveConvertiblePair<_U1, _U2>()), bool>::type <anonymous> = true; _T1 = short unsigned int; _T2 = short unsigned int]	24	static
stl_map.h:814:2:std::__enable_if_t<std::is_constructible<std::pair<const _Key, _Tp>, _Pair>::value, std::pair<typename std::_Rb_tree<_Key, std::pair<const _Key, _Tp>, std::_Select1st<std::pair<const _Key, _Tp> >, _Compare, typename __gnu_cxx::__alloc_traits<_Allocator>::rebind<std::pair<const _Key, _Tp> >::other>::iterator, bool> > std::map<_Key, _Tp, _Compare, _Alloc>::insert(_Pair&&) [with _Pair = std::pair<short unsigned int, short unsigned int>; _Key = short unsigned int; _Tp = short unsigned int; _Compare = std::less<short unsigned int>; _Alloc = std::allocator<std::pair<const short unsigned int, short unsigned int> >]	32	static
stl_tree.h:946:7:std::_Rb_tree<_Key, _Val, _KeyOfValue, _Compare, _Alloc>::_Rb_tree(const std::_Rb_tree<_Key, _Val, _KeyOfValue, _Compare, _Alloc>&) [with _Key = short unsigned int; _Val = std::pair<const short unsigned int, short unsigned int>; _KeyOfValue = std::_Select1st<std::pair<const short unsigned int, short unsigned int> >; _Compare = std::less<short unsigned int>; _Alloc = std::allocator<std::pair<const short unsigned int, short unsigned int> >]	24	static
stl_map.h:1214:7:std::map<_Key, _Tp, _Compare, _Alloc>::size_type std::map<_Key, _Tp, _Compare, _Alloc>::count(const key_type&) const [with _Key = short unsigned int; _Tp = Parameter; _Compare = std::less<short unsigned int>; _Alloc = std::allocator<std::pair<const short unsigned int, Parameter> >]	24	static
stl_map.h:490:7:std::map<_Key, _Tp, _Compare, _Alloc>::mapped_type& std::map<_Key, _Tp, _Compare, _Alloc>::operator[](const key_type&) [with _Key = short unsigned int; _Tp = Parameter; _Compare = std::less<short unsigned int>; _Alloc = std::allocator<std::pair<const short unsigned int, Parameter> >]	56	static
allocator.h:138:7:std::allocator< <template-parameter-1-1> >::allocator() [with _Tp = std::_Rb_tree_node<std::pair<const short unsigned int, Parameter> >]	16	static
stl_tree.h:146:7:std::_Rb_tree_key_compare<_Key_compare>::_Rb_tree_key_compare() [with _Key_compare = std::less<short unsigned int>]	16	static
new_allocator.h:89:7:__gnu_cxx::new_allocator<_Tp>::~new_allocator() [with _Tp = std::_Rb_tree_node<std::pair<const short unsigned int, Parameter> >]	16	static
stl_tree.h:1907:5:void std::_Rb_tree<_Key, _Val, _KeyOfValue, _Compare, _Alloc>::_M_erase(std::_Rb_tree<_Key, _Val, _KeyOfValue, _Compare, _Alloc>::_Link_type) [with _Key = short unsigned int; _Val = std::pair<const short unsigned int, Parameter>; _KeyOfValue = std::_Select1st<std::pair<const short unsigned int, Parameter> >; _Compare = std::less<short unsigned int>; _Alloc = std::allocator<std::pair<const short unsigned int, Parameter> >]	24	static
stl_tree.h:744:7:std::_Rb_tree_node<_Val>* std::_Rb_tree<_Key, _Val, _KeyOfValue, _Compare, _Alloc>::_M_begin() [with _Key = short unsigned int; _Val = std::pair<const short unsigned int, Parameter>; _KeyOfValue = std::_Select1st<std::pair<const short unsigned int, Parameter> >; _Compare = std::less<short unsigned int>; _Alloc = std::allocator<std::pair<const short unsigned int, Parameter> >]	16	static
move.h:74:5:constexpr _Tp&& std::forward(typename std::remove_reference<_Tp>::type&) [with _Tp = short unsigned int&]	16	static
move.h:74:5:constexpr _Tp&& std::forward(typename std::remove_reference<_Tp>::type&) [with _Tp = std::pair<short unsigned int, Parameter>]	16	static
stl_tree.h:2405:7:) [with _Args = {std::pair<short unsigned int, Parameter>}; _Key = short unsigned int; _Val = std::pair<const short unsigned int, Parameter>; _KeyOfValue = std::_Select1st<std::pair<const short unsigned int, Parameter> >; _Compare = std::less<short unsigned int>; _Alloc = std::allocator<std::pair<const short unsigned int, Parameter> >]	56	static
stl_tree.h:1907:5:void std::_Rb_tree<_Key, _Val, _KeyOfValue, _Compare, _Alloc>::_M_erase(std::_Rb_tree<_Key, _Val, _KeyOfValue, _Compare, _Alloc>::_Link_type) [with _Key = short unsigned int; _Val = std::pair<const short unsigned int, short unsigned int>; _KeyOfValue = std::_Select1st<std::pair<const short unsigned int, short unsigned int> >; _Compare = std::less<short unsigned int>; _Alloc = std::allocator<std::pair<const short unsigned int, short unsigned int> >]	24	static
stl_tree.h:744:7:std::_Rb_tree_node<_Val>* std::_Rb_tree<_Key, _Val, _KeyOfValue, _Compare, _Alloc>::_M_begin() [with _Key = short unsigned int; _Val = std::pair<const short unsigned int, short unsigned int>; _KeyOfValue = std::_Select1st<std::pair<const short unsigned int, short unsigned int> >; _Compare = std::less<short unsigned int>; _Alloc = std::allocator<std::pair<const short unsigned int, short unsigned int> >]	16	static
new_allocator.h:83:7:__gnu_cxx::new_allocator<_Tp>::new_allocator(const __gnu_cxx::new_allocator<_Tp>&) [with _Tp = std::_Rb_tree_node<std::pair<const short unsigned int, short unsigned int> >]	16	static
new_allocator.h:89:7:__gnu_cxx::new_allocator<_Tp>::~new_allocator() [with _Tp = std::_Rb_tree_node<std::pair<const short unsigned int, short unsigned int> >]	16	static
stl_tree.h:1042:7:std::_Rb_tree<_Key, _Val, _KeyOfValue, _Compare, _Alloc>::size_type std::_Rb_tree<_Key, _Val, _KeyOfValue, _Compare, _Alloc>::size() const [with _Key = short unsigned int; _Val = std::pair<const short unsigned int, short unsigned int>; _KeyOfValue = std::_Select1st<std::pair<const short unsigned int, short unsigned int> >; _Compare = std::less<short unsigned int>; _Alloc = std::allocator<std::pair<const short unsigned int, short unsigned int> >]	16	static
stl_tree.h:1042:7:std::_Rb_tree<_Key, _Val, _KeyOfValue, _Compare, _Alloc>::size_type std::_Rb_tree<_Key, _Val, _KeyOfValue, _Compare, _Alloc>::size() const [with _Key = short unsigned int; _Val = std::pair<const short unsigned int, Parameter>; _KeyOfValue = std::_Select1st<std::pair<const short unsigned int, Parameter> >; _Compare = std::less<short unsigned int>; _Alloc = std::allocator<std::pair<const short unsigned int, Parameter> >]	16	static
stl_tree.h:1006:7:std::_Rb_tree<_Key, _Val, _KeyOfValue, _Compare, _Alloc>::iterator std::_Rb_tree<_Key, _Val, _KeyOfValue, _Compare, _Alloc>::begin() [with _Key = short unsigned int; _Val = std::pair<const short unsigned int, short unsigned int>; _KeyOfValue = std::_Select1st<std::pair<const short unsigned int, short unsigned int> >; _Compare = std::less<short unsigned int>; _Alloc = std::allocator<std::pair<const short unsigned int, short unsigned int> >]	24	static
stl_tree.h:1014:7:std::_Rb_tree<_Key, _Val, _KeyOfValue, _Compare, _Alloc>::iterator std::_Rb_tree<_Key, _Val, _KeyOfValue, _Compare, _Alloc>::end() [with _Key = short unsigned int; _Val = std::pair<const short unsigned int, short unsigned int>; _KeyOfValue = std::_Select1st<std::pair<const short unsigned int, short unsigned int> >; _Compare = std::less<short unsigned int>; _Alloc = std::allocator<std::pair<const short unsigned int, short unsigned int> >]	24	static
stl_tree.h:234:7:_Val* std::_Rb_tree_node<_Val>::_M_valptr() [with _Val = std::pair<const short unsigned int, short unsigned int>]	16	static
allocator.h:138:7:std::allocator< <template-parameter-1-1> >::allocator() [with _Tp = std::_Rb_tree_node<std::pair<const short unsigned int, short unsigned int> >]	16	static
stl_tree.h:1006:7:std::_Rb_tree<_Key, _Val, _KeyOfValue, _Compare, _Alloc>::iterator std::_Rb_tree<_Key, _Val, _KeyOfValue, _Compare, _Alloc>::begin() [with _Key = short unsigned int; _Val = std::pair<const short unsigned int, Parameter>; _KeyOfValue = std::_Select1st<std::pair<const short unsigned int, Parameter> >; _Compare = std::less<short unsigned int>; _Alloc = std::allocator<std::pair<const short unsigned int, Parameter> >]	24	static
stl_tree.h:1014:7:std::_Rb_tree<_Key, _Val, _KeyOfValue, _Compare, _Alloc>::iterator std::_Rb_tree<_Key, _Val, _KeyOfValue, _Compare, _Alloc>::end() [with _Key = short unsigned int; _Val = std::pair<const short unsigned int, Parameter>; _KeyOfValue = std::_Select1st<std::pair<const short unsigned int, Parameter> >; _Compare = std::less<short unsigned int>; _Alloc = std::allocator<std::pair<const short unsigned int, Parameter> >]	24	static
stl_tree.h:234:7:_Val* std::_Rb_tree_node<_Val>::_M_valptr() [with _Val = std::pair<const short unsigned int, Parameter>]	16	static
move.h:74:5:constexpr _Tp&& std::forward(typename std::remove_reference<_Tp>::type&) [with _Tp = std::pair<short unsigned int, short unsigned int>]	16	static
stl_tree.h:2405:7:) [with _Args = {std::pair<short unsigned int, short unsigned int>}; _Key = short unsigned int; _Val = std::pair<const short unsigned int, short unsigned int>; _KeyOfValue = std::_Select1st<std::pair<const short unsigned int, short unsigned int> >; _Compare = std::less<short unsigned int>; _Alloc = std::allocator<std::pair<const short unsigned int, short unsigned int> >]	56	static
stl_tree.h:687:4:std::_Rb_tree<_Key, _Val, _KeyOfValue, _Compare, _Alloc>::_Rb_tree_impl<_Key_compare, <anonymous> >::_Rb_tree_impl(const std::_Rb_tree<_Key, _Val, _KeyOfValue, _Compare, _Alloc>::_Rb_tree_impl<_Key_compare, <anonymous> >&) [with _Key_compare = std::less<short unsigned int>; bool <anonymous> = true; _Key = short unsigned int; _Val = std::pair<const short unsigned int, short unsigned int>; _KeyOfValue = std::_Select1st<std::pair<const short unsigned int, short unsigned int> >; _Compare = std::less<short unsigned int>; _Alloc = std::allocator<std::pair<const short unsigned int, short unsigned int> >]	16	static
stl_tree.h:724:7:const std::_Rb_tree_node_base* std::_Rb_tree<_Key, _Val, _KeyOfValue, _Compare, _Alloc>::_M_root() const [with _Key = short unsigned int; _Val = std::pair<const short unsigned int, short unsigned int>; _KeyOfValue = std::_Select1st<std::pair<const short unsigned int, short unsigned int> >; _Compare = std::less<short unsigned int>; _Alloc = std::allocator<std::pair<const short unsigned int, short unsigned int> >]	16	static
stl_tree.h:720:7:std::_Rb_tree_node_base*& std::_Rb_tree<_Key, _Val, _KeyOfValue, _Compare, _Alloc>::_M_root() [with _Key = short unsigned int; _Val = std::pair<const short unsigned int, short unsigned int>; _KeyOfValue = std::_Select1st<std::pair<const short unsigned int, short unsigned int> >; _Compare = std::less<short unsigned int>; _Alloc = std::allocator<std::pair<const short unsigned int, short unsigned int> >]	16	static
stl_tree.h:909:7:std::_Rb_tree_node<_Val>* std::_Rb_tree<_Key, _Val, _KeyOfValue, _Compare, _Alloc>::_M_copy(const std::_Rb_tree<_Key, _Val, _KeyOfValue, _Compare, _Alloc>&) [with _Key = short unsigned int; _Val = std::pair<const short unsigned int, short unsigned int>; _KeyOfValue = std::_Select1st<std::pair<const short unsigned int, short unsigned int> >; _Compare = std::less<short unsigned int>; _Alloc = std::allocator<std::pair<const short unsigned int, short unsigned int> >]	24	static
stl_tree.h:2567:5:std::_Rb_tree<_Key, _Val, _KeyOfValue, _Compare, _Alloc>::const_iterator std::_Rb_tree<_Key, _Val, _KeyOfValue, _Compare, _Alloc>::find(const _Key&) const [with _Key = short unsigned int; _Val = std::pair<const short unsigned int, Parameter>; _KeyOfValue = std::_Select1st<std::pair<const short unsigned int, Parameter> >; _Compare = std::less<short unsigned int>; _Alloc = std::allocator<std::pair<const short unsigned int, Parameter> >]	32	static
stl_tree.h:1018:7:std::_Rb_tree<_Key, _Val, _KeyOfValue, _Compare, _Alloc>::const_iterator std::_Rb_tree<_Key, _Val, _KeyOfValue, _Compare, _Alloc>::end() const [with _Key = short unsigned int; _Val = std::pair<const short unsigned int, Parameter>; _KeyOfValue = std::_Select1st<std::pair<const short unsigned int, Parameter> >; _Compare = std::less<short unsigned int>; _Alloc = std::allocator<std::pair<const short unsigned int, Parameter> >]	24	static
stl_tree.h:394:7:bool std::operator==(const _Self&, const _Self&)	16	static
stl_map.h:1257:7:std::map<_Key, _Tp, _Compare, _Alloc>::iterator std::map<_Key, _Tp, _Compare, _Alloc>::lower_bound(const key_type&) [with _Key = short unsigned int; _Tp = Parameter; _Compare = std::less<short unsigned int>; _Alloc = std::allocator<std::pair<const short unsigned int, Parameter> >]	16	static
stl_tree.h:315:7:bool std::operator==(const _Self&, const _Self&)	16	static
stl_map.h:1141:7:std::map<_Key, _Tp, _Compare, _Alloc>::key_compare std::map<_Key, _Tp, _Compare, _Alloc>::key_comp() const [with _Key = short unsigned int; _Tp = Parameter; _Compare = std::less<short unsigned int>; _Alloc = std::allocator<std::pair<const short unsigned int, Parameter> >]	24	static
stl_function.h:385:7:constexpr bool std::less<_Tp>::operator()(const _Tp&, const _Tp&) const [with _Tp = short unsigned int]	24	static
tuple:588:19: (_Elements) >= 1)), bool>::type <anonymous> = true; _Elements = {const short unsigned int&}]	16	static
stl_tree.h:348:7:std::_Rb_tree_const_iterator<_Tp>::_Rb_tree_const_iterator(const iterator&) [with _Tp = std::pair<const short unsigned int, Parameter>]	16	static
stl_tree.h:2452:7:) [with _Args = {const std::piecewise_construct_t&, std::tuple<const short unsigned int&>, std::tuple<>}; _Key = short unsigned int; _Val = std::pair<const short unsigned int, Parameter>; _KeyOfValue = std::_Select1st<std::pair<const short unsigned int, Parameter> >; _Compare = std::less<short unsigned int>; _Alloc = std::allocator<std::pair<const short unsigned int, Parameter> >]	48	static
new_allocator.h:80:7:__gnu_cxx::new_allocator<_Tp>::new_allocator() [with _Tp = std::_Rb_tree_node<std::pair<const short unsigned int, Parameter> >]	16	static
stl_tree.h:797:7:static std::_Rb_tree_node<_Val>* std::_Rb_tree<_Key, _Val, _KeyOfValue, _Compare, _Alloc>::_S_right(std::_Rb_tree<_Key, _Val, _KeyOfValue, _Compare, _Alloc>::_Base_ptr) [with _Key = short unsigned int; _Val = std::pair<const short unsigned int, Parameter>; _KeyOfValue = std::_Select1st<std::pair<const short unsigned int, Parameter> >; _Compare = std::less<short unsigned int>; _Alloc = std::allocator<std::pair<const short unsigned int, Parameter> >]	16	static
stl_tree.h:789:7:static std::_Rb_tree_node<_Val>* std::_Rb_tree<_Key, _Val, _KeyOfValue, _Compare, _Alloc>::_S_left(std::_Rb_tree<_Key, _Val, _KeyOfValue, _Compare, _Alloc>::_Base_ptr) [with _Key = short unsigned int; _Val = std::pair<const short unsigned int, Parameter>; _KeyOfValue = std::_Select1st<std::pair<const short unsigned int, Parameter> >; _Compare = std::less<short unsigned int>; _Alloc = std::allocator<std::pair<const short unsigned int, Parameter> >]	16	static
stl_tree.h:648:7:void std::_Rb_tree<_Key, _Val, _KeyOfValue, _Compare, _Alloc>::_M_drop_node(std::_Rb_tree<_Key, _Val, _KeyOfValue, _Compare, _Alloc>::_Link_type) [with _Key = short unsigned int; _Val = std::pair<const short unsigned int, Parameter>; _KeyOfValue = std::_Select1st<std::pair<const short unsigned int, Parameter> >; _Compare = std::less<short unsigned int>; _Alloc = std::allocator<std::pair<const short unsigned int, Parameter> >]	16	static
stl_tree.h:628:2:) [with _Args = {std::pair<short unsigned int, Parameter>}; _Key = short unsigned int; _Val = std::pair<const short unsigned int, Parameter>; _KeyOfValue = std::_Select1st<std::pair<const short unsigned int, Parameter> >; _Compare = std::less<short unsigned int>; _Alloc = std::allocator<std::pair<const short unsigned int, Parameter> >]	24	static
stl_tree.h:2085:5:std::pair<std::_Rb_tree_node_base*, std::_Rb_tree_node_base*> std::_Rb_tree<_Key, _Val, _KeyOfValue, _Compare, _Alloc>::_M_get_insert_unique_pos(const key_type&) [with _Key = short unsigned int; _Val = std::pair<const short unsigned int, Parameter>; _KeyOfValue = std::_Select1st<std::pair<const short unsigned int, Parameter> >; _Compare = std::less<short unsigned int>; _Alloc = std::allocator<std::pair<const short unsigned int, Parameter> >]	56	static
stl_tree.h:767:7:static const _Key& std::_Rb_tree<_Key, _Val, _KeyOfValue, _Compare, _Alloc>::_S_key(std::_Rb_tree<_Key, _Val, _KeyOfValue, _Compare, _Alloc>::_Const_Link_type) [with _Key = short unsigned int; _Val = std::pair<const short unsigned int, Parameter>; _KeyOfValue = std::_Select1st<std::pair<const short unsigned int, Parameter> >; _Compare = std::less<short unsigned int>; _Alloc = std::allocator<std::pair<const short unsigned int, Parameter> >]	24	static
stl_tree.h:2354:5:std::_Rb_tree<_Key, _Val, _KeyOfValue, _Compare, _Alloc>::iterator std::_Rb_tree<_Key, _Val, _KeyOfValue, _Compare, _Alloc>::_M_insert_node(std::_Rb_tree<_Key, _Val, _KeyOfValue, _Compare, _Alloc>::_Base_ptr, std::_Rb_tree<_Key, _Val, _KeyOfValue, _Compare, _Alloc>::_Base_ptr, std::_Rb_tree<_Key, _Val, _KeyOfValue, _Compare, _Alloc>::_Link_type) [with _Key = short unsigned int; _Val = std::pair<const short unsigned int, Parameter>; _KeyOfValue = std::_Select1st<std::pair<const short unsigned int, Parameter> >; _Compare = std::less<short unsigned int>; _Alloc = std::allocator<std::pair<const short unsigned int, Parameter> >]	40	static
stl_pair.h:341:12:constexpr std::pair<_T1, _T2>::pair(_U1&&, _U2&&) [with _U1 = std::_Rb_tree_iterator<std::pair<const short unsigned int, Parameter> >; _U2 = bool; typename std::enable_if<(std::_PCC<true, _T1, _T2>::_MoveConstructiblePair<_U1, _U2>() && std::_PCC<true, _T1, _T2>::_ImplicitlyMoveConvertiblePair<_U1, _U2>()), bool>::type <anonymous> = true; _T1 = std::_Rb_tree_iterator<std::pair<const short unsigned int, Parameter> >; _T2 = bool]	24	static
stl_tree.h:273:7:std::_Rb_tree_iterator<_Tp>::_Rb_tree_iterator(std::_Rb_tree_iterator<_Tp>::_Base_ptr) [with _Tp = std::pair<const short unsigned int, Parameter>]	16	static
stl_tree.h:797:7:static std::_Rb_tree_node<_Val>* std::_Rb_tree<_Key, _Val, _KeyOfValue, _Compare, _Alloc>::_S_right(std::_Rb_tree<_Key, _Val, _KeyOfValue, _Compare, _Alloc>::_Base_ptr) [with _Key = short unsigned int; _Val = std::pair<const short unsigned int, short unsigned int>; _KeyOfValue = std::_Select1st<std::pair<const short unsigned int, short unsigned int> >; _Compare = std::less<short unsigned int>; _Alloc = std::allocator<std::pair<const short unsigned int, short unsigned int> >]	16	static
stl_tree.h:789:7:static std::_Rb_tree_node<_Val>* std::_Rb_tree<_Key, _Val, _KeyOfValue, _Compare, _Alloc>::_S_left(std::_Rb_tree<_Key, _Val, _KeyOfValue, _Compare, _Alloc>::_Base_ptr) [with _Key = short unsigned int; _Val = std::pair<const short unsigned int, short unsigned int>; _KeyOfValue = std::_Select1st<std::pair<const short unsigned int, short unsigned int> >; _Compare = std::less<short unsigned int>; _Alloc = std::allocator<std::pair<const short unsigned int, short unsigned int> >]	16	static
stl_tree.h:648:7:void std::_Rb_tree<_Key, _Val, _KeyOfValue, _Compare, _Alloc>::_M_drop_node(std::_Rb_tree<_Key, _Val, _KeyOfValue, _Compare, _Alloc>::_Link_type) [with _Key = short unsigned int; _Val = std::pair<const short unsigned int, short unsigned int>; _KeyOfValue = std::_Select1st<std::pair<const short unsigned int, short unsigned int> >; _Compare = std::less<short unsigned int>; _Alloc = std::allocator<std::pair<const short unsigned int, short unsigned int> >]	16	static
stl_tree.h:273:7:std::_Rb_tree_iterator<_Tp>::_Rb_tree_iterator(std::_Rb_tree_iterator<_Tp>::_Base_ptr) [with _Tp = std::pair<const short unsigned int, short unsigned int>]	16	static
aligned_buffer.h:72:7:_Tp* __gnu_cxx::__aligned_membuf<_Tp>::_M_ptr() [with _Tp = std::pair<const short unsigned int, short unsigned int>]	16	static
new_allocator.h:80:7:__gnu_cxx::new_allocator<_Tp>::new_allocator() [with _Tp = std::_Rb_tree_node<std::pair<const short unsigned int, short unsigned int> >]	16	static
aligned_buffer.h:72:7:_Tp* __gnu_cxx::__aligned_membuf<_Tp>::_M_ptr() [with _Tp = std::pair<const short unsigned int, Parameter>]	16	static
stl_tree.h:628:2:) [with _Args = {std::pair<short unsigned int, short unsigned int>}; _Key = short unsigned int; _Val = std::pair<const short unsigned int, short unsigned int>; _KeyOfValue = std::_Select1st<std::pair<const short unsigned int, short unsigned int> >; _Compare = std::less<short unsigned int>; _Alloc = std::allocator<std::pair<const short unsigned int, short unsigned int> >]	24	static
stl_tree.h:2085:5:std::pair<std::_Rb_tree_node_base*, std::_Rb_tree_node_base*> std::_Rb_tree<_Key, _Val, _KeyOfValue, _Compare, _Alloc>::_M_get_insert_unique_pos(const key_type&) [with _Key = short unsigned int; _Val = std::pair<const short unsigned int, short unsigned int>; _KeyOfValue = std::_Select1st<std::pair<const short unsigned int, short unsigned int> >; _Compare = std::less<short unsigned int>; _Alloc = std::allocator<std::pair<const short unsigned int, short unsigned int> >]	56	static
stl_tree.h:767:7:static const _Key& std::_Rb_tree<_Key, _Val, _KeyOfValue, _Compare, _Alloc>::_S_key(std::_Rb_tree<_Key, _Val, _KeyOfValue, _Compare, _Alloc>::_Const_Link_type) [with _Key = short unsigned int; _Val = std::pair<const short unsigned int, short unsigned int>; _KeyOfValue = std::_Select1st<std::pair<const short unsigned int, short unsigned int> >; _Compare = std::less<short unsigned int>; _Alloc = std::allocator<std::pair<const short unsigned int, short unsigned int> >]	24	static
stl_tree.h:2354:5:std::_Rb_tree<_Key, _Val, _KeyOfValue, _Compare, _Alloc>::iterator std::_Rb_tree<_Key, _Val, _KeyOfValue, _Compare, _Alloc>::_M_insert_node(std::_Rb_tree<_Key, _Val, _KeyOfValue, _Compare, _Alloc>::_Base_ptr, std::_Rb_tree<_Key, _Val, _KeyOfValue, _Compare, _Alloc>::_Base_ptr, std::_Rb_tree<_Key, _Val, _KeyOfValue, _Compare, _Alloc>::_Link_type) [with _Key = short unsigned int; _Val = std::pair<const short unsigned int, short unsigned int>; _KeyOfValue = std::_Select1st<std::pair<const short unsigned int, short unsigned int> >; _Compare = std::less<short unsigned int>; _Alloc = std::allocator<std::pair<const short unsigned int, short unsigned int> >]	40	static
stl_pair.h:341:12:constexpr std::pair<_T1, _T2>::pair(_U1&&, _U2&&) [with _U1 = std::_Rb_tree_iterator<std::pair<const short unsigned int, short unsigned int> >; _U2 = bool; typename std::enable_if<(std::_PCC<true, _T1, _T2>::_MoveConstructiblePair<_U1, _U2>() && std::_PCC<true, _T1, _T2>::_ImplicitlyMoveConvertiblePair<_U1, _U2>()), bool>::type <anonymous> = true; _T1 = std::_Rb_tree_iterator<std::pair<const short unsigned int, short unsigned int> >; _T2 = bool]	24	static
alloc_traits.h:97:19:static _Alloc __gnu_cxx::__alloc_traits<_Alloc, <template-parameter-1-2> >::_S_select_on_copy(const _Alloc&) [with _Alloc = std::allocator<std::_Rb_tree_node<std::pair<const short unsigned int, short unsigned int> > >; <template-parameter-1-2> = std::_Rb_tree_node<std::pair<const short unsigned int, short unsigned int> >]	16	static
stl_tree.h:152:7:std::_Rb_tree_key_compare<_Key_compare>::_Rb_tree_key_compare(const _Key_compare&) [with _Key_compare = std::less<short unsigned int>]	16	static
stl_tree.h:538:2:std::_Rb_tree<_Key, _Val, _KeyOfValue, _Compare, _Alloc>::_Alloc_node::_Alloc_node(std::_Rb_tree<_Key, _Val, _KeyOfValue, _Compare, _Alloc>&) [with _Key = short unsigned int; _Val = std::pair<const short unsigned int, short unsigned int>; _KeyOfValue = std::_Select1st<std::pair<const short unsigned int, short unsigned int> >; _Compare = std::less<short unsigned int>; _Alloc = std::allocator<std::pair<const short unsigned int, short unsigned int> >]	16	static
stl_tree.h:899:2:std::_Rb_tree_node<_Val>* std::_Rb_tree<_Key, _Val, _KeyOfValue, _Compare, _Alloc>::_M_copy(const std::_Rb_tree<_Key, _Val, _KeyOfValue, _Compare, _Alloc>&, _NodeGen&) [with _NodeGen = std::_Rb_tree<short unsigned int, std::pair<const short unsigned int, short unsigned int>, std::_Select1st<std::pair<const short unsigned int, short unsigned int> >, std::less<short unsigned int>, std::allocator<std::pair<const short unsigned int, short unsigned int> > >::_Alloc_node; _Key = short unsigned int; _Val = std::pair<const short unsigned int, short unsigned int>; _KeyOfValue = std::_Select1st<std::pair<const short unsigned int, short unsigned int> >; _Compare = std::less<short unsigned int>; _Alloc = std::allocator<std::pair<const short unsigned int, short unsigned int> >]	40	static
stl_tree.h:748:7:const std::_Rb_tree_node<_Val>* std::_Rb_tree<_Key, _Val, _KeyOfValue, _Compare, _Alloc>::_M_begin() const [with _Key = short unsigned int; _Val = std::pair<const short unsigned int, Parameter>; _KeyOfValue = std::_Select1st<std::pair<const short unsigned int, Parameter> >; _Compare = std::less<short unsigned int>; _Alloc = std::allocator<std::pair<const short unsigned int, Parameter> >]	16	static
stl_tree.h:759:7:const std::_Rb_tree_node_base* std::_Rb_tree<_Key, _Val, _KeyOfValue, _Compare, _Alloc>::_M_end() const [with _Key = short unsigned int; _Val = std::pair<const short unsigned int, Parameter>; _KeyOfValue = std::_Select1st<std::pair<const short unsigned int, Parameter> >; _Compare = std::less<short unsigned int>; _Alloc = std::allocator<std::pair<const short unsigned int, Parameter> >]	16	static
stl_tree.h:1940:5:std::_Rb_tree<_Key, _Val, _KeyOfValue, _Compare, _Alloc>::const_iterator std::_Rb_tree<_Key, _Val, _KeyOfValue, _Compare, _Alloc>::_M_lower_bound(std::_Rb_tree<_Key, _Val, _KeyOfValue, _Compare, _Alloc>::_Const_Link_type, std::_Rb_tree<_Key, _Val, _KeyOfValue, _Compare, _Alloc>::_Const_Base_ptr, const _Key&) const [with _Key = short unsigned int; _Val = std::pair<const short unsigned int, Parameter>; _KeyOfValue = std::_Select1st<std::pair<const short unsigned int, Parameter> >; _Compare = std::less<short unsigned int>; _Alloc = std::allocator<std::pair<const short unsigned int, Parameter> >]	40	static
stl_tree.h:809:7:static const _Key& std::_Rb_tree<_Key, _Val, _KeyOfValue, _Compare, _Alloc>::_S_key(std::_Rb_tree<_Key, _Val, _KeyOfValue, _Compare, _Alloc>::_Const_Base_ptr) [with _Key = short unsigned int; _Val = std::pair<const short unsigned int, Parameter>; _KeyOfValue = std::_Select1st<std::pair<const short unsigned int, Parameter> >; _Compare = std::less<short unsigned int>; _Alloc = std::allocator<std::pair<const short unsigned int, Parameter> >]	16	static
stl_tree.h:345:7:std::_Rb_tree_const_iterator<_Tp>::_Rb_tree_const_iterator(std::_Rb_tree_const_iterator<_Tp>::_Base_ptr) [with _Tp = std::pair<const short unsigned int, Parameter>]	16	static
stl_tree.h:1281:7:std::_Rb_tree<_Key, _Val, _KeyOfValue, _Compare, _Alloc>::iterator std::_Rb_tree<_Key, _Val, _KeyOfValue, _Compare, _Alloc>::lower_bound(const key_type&) [with _Key = short unsigned int; _Val = std::pair<const short unsigned int, Parameter>; _KeyOfValue = std::_Select1st<std::pair<const short unsigned int, Parameter> >; _Compare = std::less<short unsigned int>; _Alloc = std::allocator<std::pair<const short unsigned int, Parameter> >]	24	static
stl_tree.h:1002:7:_Compare std::_Rb_tree<_Key, _Val, _KeyOfValue, _Compare, _Alloc>::key_comp() const [with _Key = short unsigned int; _Val = std::pair<const short unsigned int, Parameter>; _KeyOfValue = std::_Select1st<std::pair<const short unsigned int, Parameter> >; _Compare = std::less<short unsigned int>; _Alloc = std::allocator<std::pair<const short unsigned int, Parameter> >]	16	static
tuple:343:17:constexpr std::_Tuple_impl<_Idx, _Head>::_Tuple_impl(const _Head&) [with unsigned int _Idx = 0; _Head = const short unsigned int&]	16	static
move.h:74:5:constexpr _Tp&& std::forward(typename std::remove_reference<_Tp>::type&) [with _Tp = const std::piecewise_construct_t&]	16	static
move.h:74:5:constexpr _Tp&& std::forward(typename std::remove_reference<_Tp>::type&) [with _Tp = std::tuple<const short unsigned int&>]	16	static
move.h:74:5:constexpr _Tp&& std::forward(typename std::remove_reference<_Tp>::type&) [with _Tp = std::tuple<>]	16	static
stl_tree.h:628:2:) [with _Args = {const std::piecewise_construct_t&, std::tuple<const short unsigned int&>, std::tuple<>}; _Key = short unsigned int; _Val = std::pair<const short unsigned int, Parameter>; _KeyOfValue = std::_Select1st<std::pair<const short unsigned int, Parameter> >; _Compare = std::less<short unsigned int>; _Alloc = std::allocator<std::pair<const short unsigned int, Parameter> >]	48	static
stl_tree.h:2187:5:std::pair<std::_Rb_tree_node_base*, std::_Rb_tree_node_base*> std::_Rb_tree<_Key, _Val, _KeyOfValue, _Compare, _Alloc>::_M_get_insert_hint_unique_pos(std::_Rb_tree<_Key, _Val, _KeyOfValue, _Compare, _Alloc>::const_iterator, const key_type&) [with _Key = short unsigned int; _Val = std::pair<const short unsigned int, Parameter>; _KeyOfValue = std::_Select1st<std::pair<const short unsigned int, Parameter> >; _Compare = std::less<short unsigned int>; _Alloc = std::allocator<std::pair<const short unsigned int, Parameter> >]	64	static
stl_tree.h:637:7:void std::_Rb_tree<_Key, _Val, _KeyOfValue, _Compare, _Alloc>::_M_destroy_node(std::_Rb_tree<_Key, _Val, _KeyOfValue, _Compare, _Alloc>::_Link_type) [with _Key = short unsigned int; _Val = std::pair<const short unsigned int, Parameter>; _KeyOfValue = std::_Select1st<std::pair<const short unsigned int, Parameter> >; _Compare = std::less<short unsigned int>; _Alloc = std::allocator<std::pair<const short unsigned int, Parameter> >]	24	static
stl_tree.h:583:7:void std::_Rb_tree<_Key, _Val, _KeyOfValue, _Compare, _Alloc>::_M_put_node(std::_Rb_tree<_Key, _Val, _KeyOfValue, _Compare, _Alloc>::_Link_type) [with _Key = short unsigned int; _Val = std::pair<const short unsigned int, Parameter>; _KeyOfValue = std::_Select1st<std::pair<const short unsigned int, Parameter> >; _Compare = std::less<short unsigned int>; _Alloc = std::allocator<std::pair<const short unsigned int, Parameter> >]	16	static
stl_tree.h:579:7:std::_Rb_tree_node<_Val>* std::_Rb_tree<_Key, _Val, _KeyOfValue, _Compare, _Alloc>::_M_get_node() [with _Key = short unsigned int; _Val = std::pair<const short unsigned int, Parameter>; _KeyOfValue = std::_Select1st<std::pair<const short unsigned int, Parameter> >; _Compare = std::less<short unsigned int>; _Alloc = std::allocator<std::pair<const short unsigned int, Parameter> >]	16	static
stl_tree.h:609:2:) [with _Args = {std::pair<short unsigned int, Parameter>}; _Key = short unsigned int; _Val = std::pair<const short unsigned int, Parameter>; _KeyOfValue = std::_Select1st<std::pair<const short unsigned int, Parameter> >; _Compare = std::less<short unsigned int>; _Alloc = std::allocator<std::pair<const short unsigned int, Parameter> >]	32	static
stl_tree.h:755:7:std::_Rb_tree_node_base* std::_Rb_tree<_Key, _Val, _KeyOfValue, _Compare, _Alloc>::_M_end() [with _Key = short unsigned int; _Val = std::pair<const short unsigned int, Parameter>; _KeyOfValue = std::_Select1st<std::pair<const short unsigned int, Parameter> >; _Compare = std::less<short unsigned int>; _Alloc = std::allocator<std::pair<const short unsigned int, Parameter> >]	16	static
stl_pair.h:341:12:constexpr std::pair<_T1, _T2>::pair(_U1&&, _U2&&) [with _U1 = std::_Rb_tree_node<std::pair<const short unsigned int, Parameter> >*&; _U2 = std::_Rb_tree_node_base*&; typename std::enable_if<(std::_PCC<true, _T1, _T2>::_MoveConstructiblePair<_U1, _U2>() && std::_PCC<true, _T1, _T2>::_ImplicitlyMoveConvertiblePair<_U1, _U2>()), bool>::type <anonymous> = true; _T1 = std::_Rb_tree_node_base*; _T2 = std::_Rb_tree_node_base*]	24	static
stl_tree.h:300:7:std::_Rb_tree_iterator<_Tp>::_Self& std::_Rb_tree_iterator<_Tp>::operator--() [with _Tp = std::pair<const short unsigned int, Parameter>]	16	static
stl_pair.h:311:18:constexpr std::pair<_T1, _T2>::pair(_U1&&, const _T2&) [with _U1 = std::_Rb_tree_node_base*&; typename std::enable_if<std::_PCC<true, _T1, _T2>::_MoveCopyPair<true, _U1, _T2>(), bool>::type <anonymous> = true; _T1 = std::_Rb_tree_node_base*; _T2 = std::_Rb_tree_node_base*]	24	static
stl_tree.h:238:7:const _Val* std::_Rb_tree_node<_Val>::_M_valptr() const [with _Val = std::pair<const short unsigned int, Parameter>]	16	static
stl_function.h:1155:7:const typename _Pair::first_type& std::_Select1st<_Pair>::operator()(const _Pair&) const [with _Pair = std::pair<const short unsigned int, Parameter>]	16	static
move.h:74:5:constexpr _Tp&& std::forward(typename std::remove_reference<_Tp>::type&) [with _Tp = std::_Rb_tree_iterator<std::pair<const short unsigned int, Parameter> >]	16	static
move.h:74:5:constexpr _Tp&& std::forward(typename std::remove_reference<_Tp>::type&) [with _Tp = bool]	16	static
stl_tree.h:637:7:void std::_Rb_tree<_Key, _Val, _KeyOfValue, _Compare, _Alloc>::_M_destroy_node(std::_Rb_tree<_Key, _Val, _KeyOfValue, _Compare, _Alloc>::_Link_type) [with _Key = short unsigned int; _Val = std::pair<const short unsigned int, short unsigned int>; _KeyOfValue = std::_Select1st<std::pair<const short unsigned int, short unsigned int> >; _Compare = std::less<short unsigned int>; _Alloc = std::allocator<std::pair<const short unsigned int, short unsigned int> >]	24	static
stl_tree.h:583:7:void std::_Rb_tree<_Key, _Val, _KeyOfValue, _Compare, _Alloc>::_M_put_node(std::_Rb_tree<_Key, _Val, _KeyOfValue, _Compare, _Alloc>::_Link_type) [with _Key = short unsigned int; _Val = std::pair<const short unsigned int, short unsigned int>; _KeyOfValue = std::_Select1st<std::pair<const short unsigned int, short unsigned int> >; _Compare = std::less<short unsigned int>; _Alloc = std::allocator<std::pair<const short unsigned int, short unsigned int> >]	16	static
aligned_buffer.h:64:7:void* __gnu_cxx::__aligned_membuf<_Tp>::_M_addr() [with _Tp = std::pair<const short unsigned int, short unsigned int>]	16	static
aligned_buffer.h:64:7:void* __gnu_cxx::__aligned_membuf<_Tp>::_M_addr() [with _Tp = std::pair<const short unsigned int, Parameter>]	16	static
stl_tree.h:579:7:std::_Rb_tree_node<_Val>* std::_Rb_tree<_Key, _Val, _KeyOfValue, _Compare, _Alloc>::_M_get_node() [with _Key = short unsigned int; _Val = std::pair<const short unsigned int, short unsigned int>; _KeyOfValue = std::_Select1st<std::pair<const short unsigned int, short unsigned int> >; _Compare = std::less<short unsigned int>; _Alloc = std::allocator<std::pair<const short unsigned int, short unsigned int> >]	16	static
stl_tree.h:609:2:) [with _Args = {std::pair<short unsigned int, short unsigned int>}; _Key = short unsigned int; _Val = std::pair<const short unsigned int, short unsigned int>; _KeyOfValue = std::_Select1st<std::pair<const short unsigned int, short unsigned int> >; _Compare = std::less<short unsigned int>; _Alloc = std::allocator<std::pair<const short unsigned int, short unsigned int> >]	32	static
stl_tree.h:755:7:std::_Rb_tree_node_base* std::_Rb_tree<_Key, _Val, _KeyOfValue, _Compare, _Alloc>::_M_end() [with _Key = short unsigned int; _Val = std::pair<const short unsigned int, short unsigned int>; _KeyOfValue = std::_Select1st<std::pair<const short unsigned int, short unsigned int> >; _Compare = std::less<short unsigned int>; _Alloc = std::allocator<std::pair<const short unsigned int, short unsigned int> >]	16	static
stl_tree.h:315:7:bool std::operator==(const _Self&, const _Self&)	16	static
stl_pair.h:341:12:constexpr std::pair<_T1, _T2>::pair(_U1&&, _U2&&) [with _U1 = std::_Rb_tree_node<std::pair<const short unsigned int, short unsigned int> >*&; _U2 = std::_Rb_tree_node_base*&; typename std::enable_if<(std::_PCC<true, _T1, _T2>::_MoveConstructiblePair<_U1, _U2>() && std::_PCC<true, _T1, _T2>::_ImplicitlyMoveConvertiblePair<_U1, _U2>()), bool>::type <anonymous> = true; _T1 = std::_Rb_tree_node_base*; _T2 = std::_Rb_tree_node_base*]	24	static
stl_tree.h:300:7:std::_Rb_tree_iterator<_Tp>::_Self& std::_Rb_tree_iterator<_Tp>::operator--() [with _Tp = std::pair<const short unsigned int, short unsigned int>]	16	static
stl_tree.h:809:7:static const _Key& std::_Rb_tree<_Key, _Val, _KeyOfValue, _Compare, _Alloc>::_S_key(std::_Rb_tree<_Key, _Val, _KeyOfValue, _Compare, _Alloc>::_Const_Base_ptr) [with _Key = short unsigned int; _Val = std::pair<const short unsigned int, short unsigned int>; _KeyOfValue = std::_Select1st<std::pair<const short unsigned int, short unsigned int> >; _Compare = std::less<short unsigned int>; _Alloc = std::allocator<std::pair<const short unsigned int, short unsigned int> >]	16	static
stl_tree.h:238:7:const _Val* std::_Rb_tree_node<_Val>::_M_valptr() const [with _Val = std::pair<const short unsigned int, short unsigned int>]	16	static
stl_function.h:1155:7:const typename _Pair::first_type& std::_Select1st<_Pair>::operator()(const _Pair&) const [with _Pair = std::pair<const short unsigned int, short unsigned int>]	16	static
move.h:74:5:constexpr _Tp&& std::forward(typename std::remove_reference<_Tp>::type&) [with _Tp = std::_Rb_tree_iterator<std::pair<const short unsigned int, short unsigned int> >]	16	static
alloc_traits.h:514:7:static std::allocator_traits<std::allocator<_Tp1> >::allocator_type std::allocator_traits<std::allocator<_Tp1> >::select_on_container_copy_construction(const allocator_type&) [with _Tp = std::_Rb_tree_node<std::pair<const short unsigned int, short unsigned int> >]	16	static
stl_tree.h:748:7:const std::_Rb_tree_node<_Val>* std::_Rb_tree<_Key, _Val, _KeyOfValue, _Compare, _Alloc>::_M_begin() const [with _Key = short unsigned int; _Val = std::pair<const short unsigned int, short unsigned int>; _KeyOfValue = std::_Select1st<std::pair<const short unsigned int, short unsigned int> >; _Compare = std::less<short unsigned int>; _Alloc = std::allocator<std::pair<const short unsigned int, short unsigned int> >]	16	static
stl_tree.h:1871:7:std::_Rb_tree_node<_Val>* std::_Rb_tree<_Key, _Val, _KeyOfValue, _Compare, _Alloc>::_M_copy(std::_Rb_tree<_Key, _Val, _KeyOfValue, _Compare, _Alloc>::_Const_Link_type, std::_Rb_tree<_Key, _Val, _KeyOfValue, _Compare, _Alloc>::_Base_ptr, _NodeGen&) [with _NodeGen = std::_Rb_tree<short unsigned int, std::pair<const short unsigned int, short unsigned int>, std::_Select1st<std::pair<const short unsigned int, short unsigned int> >, std::less<short unsigned int>, std::allocator<std::pair<const short unsigned int, short unsigned int> > >::_Alloc_node; _Key = short unsigned int; _Val = std::pair<const short unsigned int, short unsigned int>; _KeyOfValue = std::_Select1st<std::pair<const short unsigned int, short unsigned int> >; _Compare = std::less<short unsigned int>; _Alloc = std::allocator<std::pair<const short unsigned int, short unsigned int> >]	32	static
stl_tree.h:728:7:std::_Rb_tree_node_base*& std::_Rb_tree<_Key, _Val, _KeyOfValue, _Compare, _Alloc>::_M_leftmost() [with _Key = short unsigned int; _Val = std::pair<const short unsigned int, short unsigned int>; _KeyOfValue = std::_Select1st<std::pair<const short unsigned int, short unsigned int> >; _Compare = std::less<short unsigned int>; _Alloc = std::allocator<std::pair<const short unsigned int, short unsigned int> >]	16	static
stl_tree.h:813:7:static std::_Rb_tree_node_base* std::_Rb_tree<_Key, _Val, _KeyOfValue, _Compare, _Alloc>::_S_minimum(std::_Rb_tree<_Key, _Val, _KeyOfValue, _Compare, _Alloc>::_Base_ptr) [with _Key = short unsigned int; _Val = std::pair<const short unsigned int, short unsigned int>; _KeyOfValue = std::_Select1st<std::pair<const short unsigned int, short unsigned int> >; _Compare = std::less<short unsigned int>; _Alloc = std::allocator<std::pair<const short unsigned int, short unsigned int> >]	16	static
stl_tree.h:736:7:std::_Rb_tree_node_base*& std::_Rb_tree<_Key, _Val, _KeyOfValue, _Compare, _Alloc>::_M_rightmost() [with _Key = short unsigned int; _Val = std::pair<const short unsigned int, short unsigned int>; _KeyOfValue = std::_Select1st<std::pair<const short unsigned int, short unsigned int> >; _Compare = std::less<short unsigned int>; _Alloc = std::allocator<std::pair<const short unsigned int, short unsigned int> >]	16	static
stl_tree.h:821:7:static std::_Rb_tree_node_base* std::_Rb_tree<_Key, _Val, _KeyOfValue, _Compare, _Alloc>::_S_maximum(std::_Rb_tree<_Key, _Val, _KeyOfValue, _Compare, _Alloc>::_Base_ptr) [with _Key = short unsigned int; _Val = std::pair<const short unsigned int, short unsigned int>; _KeyOfValue = std::_Select1st<std::pair<const short unsigned int, short unsigned int> >; _Compare = std::less<short unsigned int>; _Alloc = std::allocator<std::pair<const short unsigned int, short unsigned int> >]	16	static
stl_tree.h:793:7:static const std::_Rb_tree_node<_Val>* std::_Rb_tree<_Key, _Val, _KeyOfValue, _Compare, _Alloc>::_S_left(std::_Rb_tree<_Key, _Val, _KeyOfValue, _Compare, _Alloc>::_Const_Base_ptr) [with _Key = short unsigned int; _Val = std::pair<const short unsigned int, Parameter>; _KeyOfValue = std::_Select1st<std::pair<const short unsigned int, Parameter> >; _Compare = std::less<short unsigned int>; _Alloc = std::allocator<std::pair<const short unsigned int, Parameter> >]	16	static
stl_tree.h:801:7:static const std::_Rb_tree_node<_Val>* std::_Rb_tree<_Key, _Val, _KeyOfValue, _Compare, _Alloc>::_S_right(std::_Rb_tree<_Key, _Val, _KeyOfValue, _Compare, _Alloc>::_Const_Base_ptr) [with _Key = short unsigned int; _Val = std::pair<const short unsigned int, Parameter>; _KeyOfValue = std::_Select1st<std::pair<const short unsigned int, Parameter> >; _Compare = std::less<short unsigned int>; _Alloc = std::allocator<std::pair<const short unsigned int, Parameter> >]	16	static
stl_tree.h:1924:5:std::_Rb_tree<_Key, _Val, _KeyOfValue, _Compare, _Alloc>::iterator std::_Rb_tree<_Key, _Val, _KeyOfValue, _Compare, _Alloc>::_M_lower_bound(std::_Rb_tree<_Key, _Val, _KeyOfValue, _Compare, _Alloc>::_Link_type, std::_Rb_tree<_Key, _Val, _KeyOfValue, _Compare, _Alloc>::_Base_ptr, const _Key&) [with _Key = short unsigned int; _Val = std::pair<const short unsigned int, Parameter>; _KeyOfValue = std::_Select1st<std::pair<const short unsigned int, Parameter> >; _Compare = std::less<short unsigned int>; _Alloc = std::allocator<std::pair<const short unsigned int, Parameter> >]	40	static
tuple:125:17:constexpr std::_Head_base<_Idx, _Head, false>::_Head_base(const _Head&) [with unsigned int _Idx = 0; _Head = const short unsigned int&]	16	static
stl_tree.h:609:2:) [with _Args = {const std::piecewise_construct_t&, std::tuple<const short unsigned int&>, std::tuple<>}; _Key = short unsigned int; _Val = std::pair<const short unsigned int, Parameter>; _KeyOfValue = std::_Select1st<std::pair<const short unsigned int, Parameter> >; _Compare = std::less<short unsigned int>; _Alloc = std::allocator<std::pair<const short unsigned int, Parameter> >]	48	static
stl_tree.h:352:7:std::_Rb_tree_const_iterator<_Tp>::iterator std::_Rb_tree_const_iterator<_Tp>::_M_const_cast() const [with _Tp = std::pair<const short unsigned int, Parameter>]	24	static
stl_tree.h:736:7:std::_Rb_tree_node_base*& std::_Rb_tree<_Key, _Val, _KeyOfValue, _Compare, _Alloc>::_M_rightmost() [with _Key = short unsigned int; _Val = std::pair<const short unsigned int, Parameter>; _KeyOfValue = std::_Select1st<std::pair<const short unsigned int, Parameter> >; _Compare = std::less<short unsigned int>; _Alloc = std::allocator<std::pair<const short unsigned int, Parameter> >]	16	static
stl_pair.h:325:18:constexpr std::pair<_T1, _T2>::pair(const _T1&, _U2&&) [with _U2 = std::_Rb_tree_node_base*&; typename std::enable_if<std::_PCC<true, _T1, _T2>::_CopyMovePair<true, _T1, _U2>(), bool>::type <anonymous> = true; _T1 = std::_Rb_tree_node_base*; _T2 = std::_Rb_tree_node_base*]	24	static
stl_tree.h:728:7:std::_Rb_tree_node_base*& std::_Rb_tree<_Key, _Val, _KeyOfValue, _Compare, _Alloc>::_M_leftmost() [with _Key = short unsigned int; _Val = std::pair<const short unsigned int, Parameter>; _KeyOfValue = std::_Select1st<std::pair<const short unsigned int, Parameter> >; _Compare = std::less<short unsigned int>; _Alloc = std::allocator<std::pair<const short unsigned int, Parameter> >]	16	static
stl_pair.h:341:12:constexpr std::pair<_T1, _T2>::pair(_U1&&, _U2&&) [with _U1 = std::_Rb_tree_node_base*&; _U2 = std::_Rb_tree_node_base*&; typename std::enable_if<(std::_PCC<true, _T1, _T2>::_MoveConstructiblePair<_U1, _U2>() && std::_PCC<true, _T1, _T2>::_ImplicitlyMoveConvertiblePair<_U1, _U2>()), bool>::type <anonymous> = true; _T1 = std::_Rb_tree_node_base*; _T2 = std::_Rb_tree_node_base*]	24	static
stl_tree.h:566:7:std::_Rb_tree<_Key, _Val, _KeyOfValue, _Compare, _Alloc>::_Node_allocator& std::_Rb_tree<_Key, _Val, _KeyOfValue, _Compare, _Alloc>::_M_get_Node_allocator() [with _Key = short unsigned int; _Val = std::pair<const short unsigned int, Parameter>; _KeyOfValue = std::_Select1st<std::pair<const short unsigned int, Parameter> >; _Compare = std::less<short unsigned int>; _Alloc = std::allocator<std::pair<const short unsigned int, Parameter> >]	16	static
alloc_traits.h:495:2:static void std::allocator_traits<std::allocator<_Tp1> >::destroy(std::allocator_traits<std::allocator<_Tp1> >::allocator_type&, _Up*) [with _Up = std::pair<const short unsigned int, Parameter>; _Tp = std::_Rb_tree_node<std::pair<const short unsigned int, Parameter> >]	16	static
alloc_traits.h:469:7:static void std::allocator_traits<std::allocator<_Tp1> >::deallocate(std::allocator_traits<std::allocator<_Tp1> >::allocator_type&, std::allocator_traits<std::allocator<_Tp1> >::pointer, std::allocator_traits<std::allocator<_Tp1> >::size_type) [with _Tp = std::_Rb_tree_node<std::pair<const short unsigned int, Parameter> >]	24	static
alloc_traits.h:443:7:static _Tp* std::allocator_traits<std::allocator<_Tp1> >::allocate(std::allocator_traits<std::allocator<_Tp1> >::allocator_type&, std::allocator_traits<std::allocator<_Tp1> >::size_type) [with _Tp = std::_Rb_tree_node<std::pair<const short unsigned int, Parameter> >]	16	static
alloc_traits.h:482:2:) [with _Up = std::pair<const short unsigned int, Parameter>; _Args = {std::pair<short unsigned int, Parameter>}; _Tp = std::_Rb_tree_node<std::pair<const short unsigned int, Parameter> >]	24	static
move.h:74:5:constexpr _Tp&& std::forward(typename std::remove_reference<_Tp>::type&) [with _Tp = std::_Rb_tree_node<std::pair<const short unsigned int, Parameter> >*&]	16	static
move.h:74:5:constexpr _Tp&& std::forward(typename std::remove_reference<_Tp>::type&) [with _Tp = std::_Rb_tree_node_base*&]	16	static
aligned_buffer.h:76:7:const _Tp* __gnu_cxx::__aligned_membuf<_Tp>::_M_ptr() const [with _Tp = std::pair<const short unsigned int, Parameter>]	16	static
stl_tree.h:566:7:std::_Rb_tree<_Key, _Val, _KeyOfValue, _Compare, _Alloc>::_Node_allocator& std::_Rb_tree<_Key, _Val, _KeyOfValue, _Compare, _Alloc>::_M_get_Node_allocator() [with _Key = short unsigned int; _Val = std::pair<const short unsigned int, short unsigned int>; _KeyOfValue = std::_Select1st<std::pair<const short unsigned int, short unsigned int> >; _Compare = std::less<short unsigned int>; _Alloc = std::allocator<std::pair<const short unsigned int, short unsigned int> >]	16	static
alloc_traits.h:495:2:static void std::allocator_traits<std::allocator<_Tp1> >::destroy(std::allocator_traits<std::allocator<_Tp1> >::allocator_type&, _Up*) [with _Up = std::pair<const short unsigned int, short unsigned int>; _Tp = std::_Rb_tree_node<std::pair<const short unsigned int, short unsigned int> >]	16	static
alloc_traits.h:469:7:static void std::allocator_traits<std::allocator<_Tp1> >::deallocate(std::allocator_traits<std::allocator<_Tp1> >::allocator_type&, std::allocator_traits<std::allocator<_Tp1> >::pointer, std::allocator_traits<std::allocator<_Tp1> >::size_type) [with _Tp = std::_Rb_tree_node<std::pair<const short unsigned int, short unsigned int> >]	24	static
alloc_traits.h:443:7:static _Tp* std::allocator_traits<std::allocator<_Tp1> >::allocate(std::allocator_traits<std::allocator<_Tp1> >::allocator_type&, std::allocator_traits<std::allocator<_Tp1> >::size_type) [with _Tp = std::_Rb_tree_node<std::pair<const short unsigned int, short unsigned int> >]	16	static
alloc_traits.h:482:2:) [with _Up = std::pair<const short unsigned int, short unsigned int>; _Args = {std::pair<short unsigned int, short unsigned int>}; _Tp = std::_Rb_tree_node<std::pair<const short unsigned int, short unsigned int> >]	24	static
move.h:74:5:constexpr _Tp&& std::forward(typename std::remove_reference<_Tp>::type&) [with _Tp = std::_Rb_tree_node<std::pair<const short unsigned int, short unsigned int> >*&]	16	static
aligned_buffer.h:76:7:const _Tp* __gnu_cxx::__aligned_membuf<_Tp>::_M_ptr() const [with _Tp = std::pair<const short unsigned int, short unsigned int>]	16	static
stl_tree.h:656:2:std::_Rb_tree_node<_Val>* std::_Rb_tree<_Key, _Val, _KeyOfValue, _Compare, _Alloc>::_M_clone_node(std::_Rb_tree<_Key, _Val, _KeyOfValue, _Compare, _Alloc>::_Const_Link_type, _NodeGen&) [with _NodeGen = std::_Rb_tree<short unsigned int, std::pair<const short unsigned int, short unsigned int>, std::_Select1st<std::pair<const short unsigned int, short unsigned int> >, std::less<short unsigned int>, std::allocator<std::pair<const short unsigned int, short unsigned int> > >::_Alloc_node; _Key = short unsigned int; _Val = std::pair<const short unsigned int, short unsigned int>; _KeyOfValue = std::_Select1st<std::pair<const short unsigned int, short unsigned int> >; _Compare = std::less<short unsigned int>; _Alloc = std::allocator<std::pair<const short unsigned int, short unsigned int> >]	32	static
stl_tree.h:801:7:static const std::_Rb_tree_node<_Val>* std::_Rb_tree<_Key, _Val, _KeyOfValue, _Compare, _Alloc>::_S_right(std::_Rb_tree<_Key, _Val, _KeyOfValue, _Compare, _Alloc>::_Const_Base_ptr) [with _Key = short unsigned int; _Val = std::pair<const short unsigned int, short unsigned int>; _KeyOfValue = std::_Select1st<std::pair<const short unsigned int, short unsigned int> >; _Compare = std::less<short unsigned int>; _Alloc = std::allocator<std::pair<const short unsigned int, short unsigned int> >]	16	static
stl_tree.h:793:7:static const std::_Rb_tree_node<_Val>* std::_Rb_tree<_Key, _Val, _KeyOfValue, _Compare, _Alloc>::_S_left(std::_Rb_tree<_Key, _Val, _KeyOfValue, _Compare, _Alloc>::_Const_Base_ptr) [with _Key = short unsigned int; _Val = std::pair<const short unsigned int, short unsigned int>; _KeyOfValue = std::_Select1st<std::pair<const short unsigned int, short unsigned int> >; _Compare = std::less<short unsigned int>; _Alloc = std::allocator<std::pair<const short unsigned int, short unsigned int> >]	16	static
alloc_traits.h:482:2:) [with _Up = std::pair<const short unsigned int, Parameter>; _Args = {const std::piecewise_construct_t&, std::tuple<const short unsigned int&>, std::tuple<>}; _Tp = std::_Rb_tree_node<std::pair<const short unsigned int, Parameter> >]	40	static
stl_pair.h:208:12:std::pair<const short unsigned int, Parameter>::~pair()	16	static
new_allocator.h:151:2:void __gnu_cxx::new_allocator<_Tp>::destroy(_Up*) [with _Up = std::pair<const short unsigned int, Parameter>; _Tp = std::_Rb_tree_node<std::pair<const short unsigned int, Parameter> >]	16	static
new_allocator.h:119:7:void __gnu_cxx::new_allocator<_Tp>::deallocate(__gnu_cxx::new_allocator<_Tp>::pointer, __gnu_cxx::new_allocator<_Tp>::size_type) [with _Tp = std::_Rb_tree_node<std::pair<const short unsigned int, Parameter> >]	24	static
new_allocator.h:102:7:_Tp* __gnu_cxx::new_allocator<_Tp>::allocate(__gnu_cxx::new_allocator<_Tp>::size_type, const void*) [with _Tp = std::_Rb_tree_node<std::pair<const short unsigned int, Parameter> >]	24	static
new_allocator.h:144:2:) [with _Up = std::pair<const short unsigned int, Parameter>; _Args = {std::pair<short unsigned int, Parameter>}; _Tp = std::_Rb_tree_node<std::pair<const short unsigned int, Parameter> >]	32	static
aligned_buffer.h:68:7:const void* __gnu_cxx::__aligned_membuf<_Tp>::_M_addr() const [with _Tp = std::pair<const short unsigned int, Parameter>]	16	static
new_allocator.h:151:2:void __gnu_cxx::new_allocator<_Tp>::destroy(_Up*) [with _Up = std::pair<const short unsigned int, short unsigned int>; _Tp = std::_Rb_tree_node<std::pair<const short unsigned int, short unsigned int> >]	16	static
new_allocator.h:119:7:void __gnu_cxx::new_allocator<_Tp>::deallocate(__gnu_cxx::new_allocator<_Tp>::pointer, __gnu_cxx::new_allocator<_Tp>::size_type) [with _Tp = std::_Rb_tree_node<std::pair<const short unsigned int, short unsigned int> >]	24	static
new_allocator.h:102:7:_Tp* __gnu_cxx::new_allocator<_Tp>::allocate(__gnu_cxx::new_allocator<_Tp>::size_type, const void*) [with _Tp = std::_Rb_tree_node<std::pair<const short unsigned int, short unsigned int> >]	24	static
new_allocator.h:144:2:) [with _Up = std::pair<const short unsigned int, short unsigned int>; _Args = {std::pair<short unsigned int, short unsigned int>}; _Tp = std::_Rb_tree_node<std::pair<const short unsigned int, short unsigned int> >]	32	static
aligned_buffer.h:68:7:const void* __gnu_cxx::__aligned_membuf<_Tp>::_M_addr() const [with _Tp = std::pair<const short unsigned int, short unsigned int>]	16	static
stl_tree.h:546:4:std::_Rb_tree_node<_Val>* std::_Rb_tree<_Key, _Val, _KeyOfValue, _Compare, _Alloc>::_Alloc_node::operator()(_Arg&&) const [with _Arg = const std::pair<const short unsigned int, short unsigned int>&; _Key = short unsigned int; _Val = std::pair<const short unsigned int, short unsigned int>; _KeyOfValue = std::_Select1st<std::pair<const short unsigned int, short unsigned int> >; _Compare = std::less<short unsigned int>; _Alloc = std::allocator<std::pair<const short unsigned int, short unsigned int> >]	24	static
tuple:642:17:constexpr std::tuple<_Elements>::tuple(std::tuple<_Elements>&&) [with _Elements = {const short unsigned int&}]	16	static
new_allocator.h:144:2:) [with _Up = std::pair<const short unsigned int, Parameter>; _Args = {const std::piecewise_construct_t&, std::tuple<const short unsigned int&>, std::tuple<>}; _Tp = std::_Rb_tree_node<std::pair<const short unsigned int, Parameter> >]	48	static
new_allocator.h:132:7:__gnu_cxx::new_allocator<_Tp>::size_type __gnu_cxx::new_allocator<_Tp>::max_size() const [with _Tp = std::_Rb_tree_node<std::pair<const short unsigned int, Parameter> >]	16	static
move.h:74:5:constexpr _Tp&& std::forward(typename std::remove_reference<_Tp>::type&) [with _Tp = Parameter]	16	static
stl_pair.h:360:12:constexpr std::pair<_T1, _T2>::pair(std::pair<_U1, _U2>&&) [with _U1 = short unsigned int; _U2 = Parameter; typename std::enable_if<(std::_PCC<((! std::is_same<_T1, _U1>::value) || (! std::is_same<_T2, _U2>::value)), _T1, _T2>::_MoveConstructiblePair<_U1, _U2>() && std::_PCC<((! std::is_same<_T1, _U1>::value) || (! std::is_same<_T2, _U2>::value)), _T1, _T2>::_ImplicitlyMoveConvertiblePair<_U1, _U2>()), bool>::type <anonymous> = true; _T1 = const short unsigned int; _T2 = Parameter]	24	static
new_allocator.h:132:7:__gnu_cxx::new_allocator<_Tp>::size_type __gnu_cxx::new_allocator<_Tp>::max_size() const [with _Tp = std::_Rb_tree_node<std::pair<const short unsigned int, short unsigned int> >]	16	static
stl_pair.h:360:12:constexpr std::pair<_T1, _T2>::pair(std::pair<_U1, _U2>&&) [with _U1 = short unsigned int; _U2 = short unsigned int; typename std::enable_if<(std::_PCC<((! std::is_same<_T1, _U1>::value) || (! std::is_same<_T2, _U2>::value)), _T1, _T2>::_MoveConstructiblePair<_U1, _U2>() && std::_PCC<((! std::is_same<_T1, _U1>::value) || (! std::is_same<_T2, _U2>::value)), _T1, _T2>::_ImplicitlyMoveConvertiblePair<_U1, _U2>()), bool>::type <anonymous> = true; _T1 = const short unsigned int; _T2 = short unsigned int]	16	static
move.h:74:5:constexpr _Tp&& std::forward(typename std::remove_reference<_Tp>::type&) [with _Tp = const std::pair<const short unsigned int, short unsigned int>&]	16	static
stl_tree.h:628:2:) [with _Args = {const std::pair<const short unsigned int, short unsigned int>&}; _Key = short unsigned int; _Val = std::pair<const short unsigned int, short unsigned int>; _KeyOfValue = std::_Select1st<std::pair<const short unsigned int, short unsigned int> >; _Compare = std::less<short unsigned int>; _Alloc = std::allocator<std::pair<const short unsigned int, short unsigned int> >]	24	static
tuple:358:7:constexpr std::_Tuple_impl<_Idx, _Head>::_Tuple_impl(std::_Tuple_impl<_Idx, _Head>&&) [with unsigned int _Idx = 0; _Head = const short unsigned int&]	24	static
tuple:1658:7:>) [with _Args1 = {const short unsigned int&}; _Args2 = {}; _T1 = const short unsigned int; _T2 = Parameter]	48	static
move.h:74:5:constexpr _Tp&& std::forward(typename std::remove_reference<_Tp>::type&) [with _Tp = short unsigned int]	16	static
stl_tree.h:609:2:) [with _Args = {const std::pair<const short unsigned int, short unsigned int>&}; _Key = short unsigned int; _Val = std::pair<const short unsigned int, short unsigned int>; _KeyOfValue = std::_Select1st<std::pair<const short unsigned int, short unsigned int> >; _Compare = std::less<short unsigned int>; _Alloc = std::allocator<std::pair<const short unsigned int, short unsigned int> >]	32	static
tuple:334:7:static constexpr _Head& std::_Tuple_impl<_Idx, _Head>::_M_head(std::_Tuple_impl<_Idx, _Head>&) [with unsigned int _Idx = 0; _Head = const short unsigned int&]	16	static
move.h:74:5:constexpr _Tp&& std::forward(typename std::remove_reference<_Tp>::type&) [with _Tp = const short unsigned int&]	16	static
tuple:1670:7:_Indexes2 = {}; _T1 = const short unsigned int; _T2 = Parameter]	24	static
alloc_traits.h:482:2:) [with _Up = std::pair<const short unsigned int, short unsigned int>; _Args = {const std::pair<const short unsigned int, short unsigned int>&}; _Tp = std::_Rb_tree_node<std::pair<const short unsigned int, short unsigned int> >]	24	static
tuple:160:7:static constexpr _Head& std::_Head_base<_Idx, _Head, false>::_M_head(std::_Head_base<_Idx, _Head, false>&) [with unsigned int _Idx = 0; _Head = const short unsigned int&]	16	static
tuple:1320:5:>&) [with unsigned int __i = 0; _Elements = {const short unsigned int&}]	16	static
new_allocator.h:144:2:) [with _Up = std::pair<const short unsigned int, short unsigned int>; _Args = {const std::pair<const short unsigned int, short unsigned int>&}; _Tp = std::_Rb_tree_node<std::pair<const short unsigned int, short unsigned int> >]	32	static
tuple:1309:5:>&) [with unsigned int __i = 0; _Head = const short unsigned int&; _Tail = {}]	16	static
