<?xml version="1.0" encoding="UTF-8"?>
<session version="1.0">
<refactoring comment="Delete 2 resources" deleteContents="false" description="Delete 2 resources" element1="/DisplayControl/source/I2CSlave.cpp" element2="/DisplayControl/source/I2CSlave.h" flags="7" id="org.eclipse.ltk.core.refactoring.delete.resources" resources="2" stamp="1593543819553"/>
</session>