../drivers/fsl_i2c.c:199:17:I2C_PendingStatusWait	0	static
../drivers/fsl_i2c.c:1100:13:I2C_SlaveInvokeEvent	16	static
../drivers/fsl_i2c.c:963:6:I2C_MasterTransferHandleIRQ	8	static
../drivers/fsl_i2c.c:1737:6:I2C_SlaveTransferHandleIRQ	16	static
../drivers/fsl_i2c.c:80:10:I2C_GetInstance	0	static
../drivers/fsl_i2c.c:109:6:I2C_MasterGetDefaultConfig	8	static
../drivers/fsl_i2c.c:147:6:I2C_MasterDeinit	0	static
../drivers/fsl_i2c.c:162:6:I2C_MasterSetBaudRate	32	static
../drivers/fsl_i2c.c:132:6:I2C_MasterInit	24	static
../drivers/fsl_i2c.c:239:10:I2C_MasterStart	16	static
../drivers/fsl_i2c.c:262:10:I2C_MasterStop	8	static
../drivers/fsl_i2c.c:292:10:I2C_MasterWriteBlocking	24	static
../drivers/fsl_i2c.c:401:10:I2C_MasterReadBlocking	16	static
../drivers/fsl_i2c.c:501:10:I2C_MasterTransferBlocking	24	static
../drivers/fsl_i2c.c:580:6:I2C_MasterTransferCreateHandle	24	static
../drivers/fsl_i2c.c:616:10:I2C_MasterTransferNonBlocking	20	static
../drivers/fsl_i2c.c:653:10:I2C_MasterTransferGetCount	0	static
../drivers/fsl_i2c.c:685:10:I2C_MasterTransferAbort	8	static
../drivers/fsl_i2c.c:1275:10:I2C_SlaveSetSendBuffer	16	static
../drivers/fsl_i2c.c:1305:10:I2C_SlaveSetReceiveBuffer	16	static
../drivers/fsl_i2c.c:1322:6:I2C_SlaveSetAddress	0	static
../drivers/fsl_i2c.c:1351:6:I2C_SlaveGetDefaultConfig	16	static
../drivers/fsl_i2c.c:1379:10:I2C_SlaveInit	16	static
../drivers/fsl_i2c.c:1423:6:I2C_SlaveDeinit	0	static
../drivers/fsl_i2c.c:1439:10:I2C_SlaveWriteBlocking	12	static
../drivers/fsl_i2c.c:1526:10:I2C_SlaveReadBlocking	12	static
../drivers/fsl_i2c.c:1614:6:I2C_SlaveTransferCreateHandle	24	static
../drivers/fsl_i2c.c:1673:10:I2C_SlaveTransferNonBlocking	12	static
../drivers/fsl_i2c.c:1687:10:I2C_SlaveTransferGetCount	0	static
../drivers/fsl_i2c.c:1717:6:I2C_SlaveTransferAbort	0	static
