../drivers/fsl_iap.h:113:20:iap_entry	8	static
../drivers/fsl_iap.c:55:10:IAP_ReadPartID	48	static
../drivers/fsl_iap.c:77:10:IAP_ReadBootCodeVersion	48	static
../drivers/fsl_iap.c:103:6:IAP_ReinvokeISP	64	static
../drivers/fsl_iap.c:127:10:IAP_ReadUniqueID	48	static
../drivers/fsl_iap.c:152:10:IAP_ReadFactorySettings	48	static
../drivers/fsl_iap.c:182:10:IAP_PrepareSectorForWrite	48	static
../drivers/fsl_iap.c:218:10:IAP_CopyRamToFlash	48	static
../drivers/fsl_iap.c:252:10:IAP_EraseSector	48	static
../drivers/fsl_iap.c:283:10:IAP_ErasePage	48	static
../drivers/fsl_iap.c:309:10:IAP_BlankCheckSector	48	static
../drivers/fsl_iap.c:339:10:IAP_Compare	48	static
../drivers/fsl_iap.c:364:10:IAP_ExtendedFlashSignatureRead	48	static
../drivers/fsl_iap.c:391:10:IAP_ReadFlashSignature	48	static
../drivers/fsl_iap.c:418:10:IAP_ReadEEPROMPage	48	static
../drivers/fsl_iap.c:447:10:IAP_WriteEEPROMPage	48	static
