../CMSIS/core_cm4.h:1677:22:__NVIC_EnableIRQ	16	static
../drivers/fsl_common.h:414:28:EnableIRQ	16	static
../drivers/fsl_common.h:482:28:DisableGlobalIRQ	16	static
../drivers/fsl_common.h:509:24:EnableGlobalIRQ	24	static
../drivers/fsl_usart.h:345:20:USART_DisableInterrupts	16	static
../drivers/fsl_usart.c:42:10:USART_GetInstance	24	static
../drivers/fsl_usart.c:64:8:USART_TransferGetRxRingBufferLength	24	static
../drivers/fsl_usart.c:82:13:USART_TransferIsRxRingBufferFull	24	static
../drivers/fsl_usart.c:117:6:USART_TransferStartRingBuffer	24	static
../drivers/fsl_usart.c:141:6:USART_TransferStopRingBuffer	16	static
../drivers/fsl_usart.c:178:10:USART_Init	32	static
../drivers/fsl_usart.c:237:6:USART_Deinit	16	static
../drivers/fsl_usart.c:266:6:USART_GetDefaultConfig	16	static
../drivers/fsl_usart.c:302:10:USART_SetBaudRate	56	static
../drivers/fsl_usart.c:356:6:USART_WriteBlocking	24	static
../drivers/fsl_usart.c:399:10:USART_ReadBlocking	32	static
../drivers/fsl_usart.c:464:10:USART_TransferCreateHandle	32	static
../drivers/fsl_usart.c:517:10:USART_TransferSendNonBlocking	24	static
../drivers/fsl_usart.c:558:6:USART_TransferAbortSend	16	static
../drivers/fsl_usart.c:584:10:USART_TransferGetSendCount	24	static
../drivers/fsl_usart.c:625:10:USART_TransferReceiveNonBlocking	56	static
../drivers/fsl_usart.c:744:6:USART_TransferAbortReceive	16	static
../drivers/fsl_usart.c:773:10:USART_TransferGetReceiveCount	24	static
../drivers/fsl_usart.c:796:6:USART_TransferHandleIRQ	32	static
