../utilities/fsl_debug_console.c:292:10:DbgConsole_ReadOneCharacter	8	static
../utilities/fsl_debug_console.c:358:5:DbgConsole_SendData	8	static
../utilities/fsl_debug_console.c:425:5:DbgConsole_ReadLine	24	static
../utilities/fsl_debug_console.c:477:5:DbgConsole_ReadCharacter	8	static
../utilities/fsl_debug_console.c:526:10:DbgConsole_Init	48	static
../utilities/fsl_debug_console.c:630:10:DbgConsole_Deinit	8	static
../utilities/fsl_debug_console.c:644:10:DbgConsole_Flush	0	static
