../component/serial_manager/serial_port_uart.c:129:25:Serial_UartInit	24	static
../component/serial_manager/serial_port_uart.c:198:25:Serial_UartDeinit	8	static
../component/serial_manager/serial_port_uart.c:265:25:Serial_UartWrite	0	static
../component/serial_manager/serial_port_uart.c:279:25:Serial_UartRead	0	static
