../component/serial_manager/serial_manager.c:773:25:SerialManager_Init	16	static
../component/serial_manager/serial_manager.c:879:25:SerialManager_Deinit	8	static
../component/serial_manager/serial_manager.c:929:25:SerialManager_OpenWriteHandle	16	static
../component/serial_manager/serial_manager.c:955:25:SerialManager_CloseWriteHandle	8	static
../component/serial_manager/serial_manager.c:980:25:SerialManager_OpenReadHandle	16	static
../component/serial_manager/serial_manager.c:1010:25:SerialManager_CloseReadHandle	8	static
../component/serial_manager/serial_manager.c:1035:25:SerialManager_WriteBlocking	0	static
../component/serial_manager/serial_manager.c:1044:25:SerialManager_ReadBlocking	0	static
../component/serial_manager/serial_manager.c:1229:25:SerialManager_EnterLowpower	0	static
../component/serial_manager/serial_manager.c:1236:25:SerialManager_ExitLowpower	0	static
